v -2.075336 0.304354 1.147450
v -1.809640 0.304354 1.147450
v -1.809640 0.185444 1.147450
v -2.075336 0.185444 1.147450
v -1.807657 0.179496 1.149346
v -1.807657 0.179496 2.066402
v -1.807657 0.060586 2.066402
v -1.807657 0.060586 1.149346
v -2.075336 0.194561 1.158430
v -2.075336 0.194561 2.057318
v -1.825480 0.194561 2.057318
v -1.825480 0.194561 1.158430
v -1.807657 0.429443 2.066402
v -1.807657 0.310533 2.066402
v -1.807657 0.310533 1.149346
v -1.807657 0.429443 1.149346
v -1.823496 0.446981 2.057318
v -1.823496 0.554792 2.057318
v -1.823496 0.554792 1.158430
v -1.823496 0.446981 1.158430
v -2.104105 0.026038 2.102886
v -2.104105 0.026038 1.113105
v -1.808072 0.026038 1.113105
v -1.808072 0.026038 2.102886
v -2.106088 0.569915 1.135334
v -2.106088 0.045578 1.135334
v -2.106088 0.045578 2.080657
v -2.106088 0.569915 2.080657
v -2.106088 0.569915 2.102886
v -2.106088 0.569915 2.084449
v -2.106088 0.045578 2.084449
v -2.106088 0.045578 2.102886
v -2.104105 0.571898 2.102886
v -1.808072 0.571898 2.102886
v -1.808072 0.571898 2.084450
v -2.104105 0.571898 2.084449
v -1.806088 0.045578 2.102886
v -1.806088 0.045578 2.084450
v -1.806088 0.569915 2.084450
v -1.806088 0.569915 2.102886
v -2.104105 0.045578 2.082553
v -2.104105 0.569915 2.082553
v -1.808072 0.569915 2.082554
v -1.808072 0.045578 2.082554
v -1.808072 0.043596 1.131542
v -2.104105 0.043596 1.131542
v -2.104105 0.043596 1.113105
v -1.808072 0.043596 1.113106
v -1.809640 0.179496 1.147450
v -1.809640 0.060586 1.147450
v -2.075336 0.060586 1.147450
v -2.075336 0.179496 1.147450
v -2.075336 0.179496 1.156534
v -2.075336 0.071686 1.156534
v -1.825480 0.071686 1.156534
v -1.825480 0.179496 1.156534
v -1.808072 0.573880 2.104782
v -1.808072 0.592416 2.104782
v -2.104105 0.592416 2.104782
v -2.104105 0.573880 2.104782
v -2.075336 0.185444 2.068298
v -1.809640 0.185444 2.068298
v -1.809640 0.304354 2.068298
v -2.075336 0.304354 2.068298
v -1.825480 0.319650 1.158430
v -2.075336 0.319650 1.158430
v -2.075336 0.319650 2.057318
v -1.825480 0.319650 2.057318
v -1.807657 0.554792 2.066402
v -1.807657 0.435882 2.066402
v -1.807657 0.435882 1.149346
v -1.807657 0.554792 1.149346
v -2.075336 0.069703 1.158430
v -2.075336 0.069703 2.057318
v -1.825480 0.069703 2.057318
v -1.825480 0.069703 1.158430
v -1.808072 0.594399 1.113106
v -2.104105 0.594399 1.113105
v -2.104105 0.594399 2.102886
v -1.808072 0.594399 2.102886
v -2.075336 0.306336 2.066402
v -1.809640 0.306336 2.066402
v -1.809640 0.306336 1.149346
v -2.075336 0.306336 1.149346
v -2.075336 0.306336 1.154638
v -1.821513 0.306336 1.154638
v -1.821513 0.306336 2.061110
v -2.075336 0.306336 2.061110
v -2.104105 0.028021 1.111209
v -2.104105 0.041613 1.111209
v -1.808072 0.041613 1.111209
v -1.808072 0.028021 1.111209
v -1.806089 0.573880 2.102886
v -1.806088 0.573880 1.113106
v -1.806088 0.592416 1.113106
v -1.806089 0.592416 2.102886
v -2.075336 0.554792 2.059214
v -1.825480 0.554792 2.059214
v -1.825480 0.446981 2.059214
v -2.075336 0.446981 2.059214
v -1.807657 0.304354 1.149346
v -1.807657 0.304354 2.066402
v -1.807657 0.185444 2.066402
v -1.807657 0.185444 1.149346
v -2.075336 0.308550 2.066402
v -2.075336 0.308550 1.149346
v -1.809640 0.308550 1.149346
v -1.809640 0.308550 2.066402
v -2.086893 0.045578 2.082553
v -2.086893 0.569915 2.082553
v -2.104105 0.569915 2.082553
v -2.104105 0.045578 2.082553
v -2.104105 0.569915 2.104782
v -2.104105 0.045578 2.104782
v -1.808072 0.045578 2.104782
v -1.808072 0.569915 2.104782
v -2.075336 0.435882 2.068298
v -1.809640 0.435882 2.068298
v -1.809640 0.554792 2.068298
v -2.075336 0.554792 2.068298
v -2.106088 0.045578 1.131542
v -2.106088 0.569915 1.131542
v -2.106088 0.569915 1.113105
v -2.106088 0.045578 1.113105
v -2.104105 0.571898 2.102886
v -2.104105 0.571898 1.113105
v -1.808072 0.571898 1.113106
v -1.808072 0.571898 2.102886
v -2.104105 0.569915 1.133438
v -2.086893 0.569915 1.133438
v -2.086893 0.045578 1.133438
v -2.104105 0.045578 1.133438
v -1.809640 0.431426 1.149346
v -2.075336 0.431426 1.149346
v -2.075336 0.431426 1.154638
v -1.821513 0.431426 1.154638
v -1.821513 0.431426 2.061110
v -2.075336 0.431426 2.061110
v -2.075336 0.431426 2.066402
v -1.809640 0.431426 2.066402
v -2.075336 0.304354 2.059214
v -1.825480 0.304354 2.059214
v -1.825480 0.196543 2.059214
v -2.075336 0.196543 2.059214
v -2.104105 0.041613 2.104782
v -2.104105 0.028021 2.104782
v -1.808072 0.028021 2.104782
v -1.808072 0.041613 2.104782
v -1.823496 0.071686 1.158430
v -1.823496 0.071686 2.057318
v -1.823496 0.179496 2.057318
v -1.823496 0.179496 1.158430
v -2.106088 0.028021 2.102886
v -2.106088 0.041613 2.102886
v -2.106088 0.041613 1.113105
v -2.106088 0.028021 1.113105
v -2.075336 0.429443 1.156534
v -2.075336 0.321632 1.156534
v -1.825480 0.321632 1.156534
v -1.825480 0.429443 1.156534
v -2.104105 0.043596 1.135334
v -2.086893 0.043596 1.135334
v -2.086893 0.043596 2.080657
v -2.104105 0.043596 2.080657
v -1.806089 0.028021 2.102886
v -1.806088 0.028021 1.113105
v -1.806088 0.041613 1.113105
v -1.806089 0.041613 2.102886
v -2.106088 0.592416 1.113105
v -2.106088 0.573880 1.113105
v -2.106088 0.573880 2.102886
v -2.106088 0.592416 2.102886
v -2.075336 0.429443 2.059214
v -1.825480 0.429443 2.059214
v -1.825480 0.321632 2.059214
v -2.075336 0.321632 2.059214
v -2.075336 0.444998 2.057318
v -1.825480 0.444998 2.057318
v -1.825480 0.444998 1.158430
v -2.075336 0.444998 1.158430
v -2.075336 0.435882 1.147450
v -2.075336 0.554792 1.147450
v -1.809640 0.554792 1.147450
v -1.809640 0.435882 1.147450
v -1.806088 0.569915 1.131542
v -1.806088 0.045578 1.131542
v -1.806088 0.045578 1.113106
v -1.806088 0.569915 1.113106
v -1.808072 0.573880 1.111210
v -2.104105 0.573880 1.111209
v -2.104105 0.592416 1.111209
v -1.808072 0.592416 1.111210
v -2.104105 0.569915 1.133438
v -2.104105 0.045578 1.133438
v -1.808072 0.045578 1.133438
v -1.808072 0.569915 1.133438
v -1.821513 0.181479 1.154638
v -1.821513 0.181479 2.061110
v -2.075336 0.181479 2.061110
v -2.075336 0.181479 2.066402
v -1.809640 0.181479 2.066402
v -1.809640 0.181479 1.149346
v -2.075336 0.181479 1.149346
v -2.075336 0.181479 1.154638
v -2.075336 0.304354 1.156534
v -2.075336 0.196543 1.156534
v -1.825480 0.196543 1.156534
v -1.825480 0.304354 1.156534
v -1.809640 0.433899 2.066402
v -2.075336 0.433899 2.066402
v -2.075336 0.433899 1.149346
v -1.809640 0.433899 1.149346
v -2.104105 0.571898 1.131542
v -1.808072 0.571898 1.131542
v -1.808072 0.571898 1.113106
v -2.104105 0.571898 1.113105
v -1.823496 0.304354 1.158430
v -1.823496 0.196543 1.158430
v -1.823496 0.196543 2.057318
v -1.823496 0.304354 2.057318
v -1.821513 0.556774 2.061110
v -2.075336 0.556774 2.061110
v -2.075336 0.556774 2.066402
v -1.809640 0.556774 2.066402
v -1.809640 0.556774 1.149346
v -2.075336 0.556774 1.149346
v -2.075336 0.556774 1.154638
v -1.821513 0.556774 1.154638
v -2.104105 0.043596 1.113105
v -2.104105 0.043596 2.102886
v -1.808072 0.043596 2.102886
v -1.808072 0.043596 1.113105
v -2.075336 0.179496 2.059214
v -1.825480 0.179496 2.059214
v -1.825480 0.071686 2.059214
v -2.075336 0.071686 2.059214
v -2.075336 0.058604 1.149346
v -1.809640 0.058604 1.149346
v -1.809640 0.058604 2.066402
v -2.075336 0.058604 2.066402
v -2.075336 0.183461 1.149346
v -1.809640 0.183461 1.149346
v -1.809640 0.183461 2.066402
v -2.075336 0.183461 2.066402
v -1.823496 0.429443 1.158430
v -1.823496 0.321632 1.158430
v -1.823496 0.321632 2.057318
v -1.823496 0.429443 2.057318
v -1.809640 0.429443 2.068298
v -2.075336 0.429443 2.068298
v -2.075336 0.310533 2.068298
v -1.809640 0.310533 2.068298
v -1.808072 0.043596 2.102886
v -2.104105 0.043596 2.102886
v -2.104105 0.043596 2.084449
v -1.808072 0.043596 2.084450
v -2.075336 0.429443 1.147450
v -1.809640 0.429443 1.147450
v -1.809640 0.310533 1.147450
v -2.075336 0.310533 1.147450
v -2.075336 0.554792 1.156534
v -2.075336 0.446981 1.156534
v -1.825480 0.446981 1.156534
v -1.825480 0.554792 1.156534
v -2.104105 0.569915 1.111209
v -1.808072 0.569915 1.111210
v -1.808072 0.045578 1.111210
v -2.104105 0.045578 1.111209
v -2.084910 0.045578 1.135334
v -2.084910 0.569915 1.135334
v -2.084910 0.569915 2.080657
v -2.084910 0.045578 2.080657
v -2.104105 0.571898 2.080657
v -2.086893 0.571898 2.080657
v -2.086893 0.571898 1.135334
v -2.104105 0.571898 1.135334
v -2.075336 0.060586 2.068298
v -1.809640 0.060586 2.068298
v -1.809640 0.179496 2.068298
v -2.075336 0.179496 2.068298
v -2.106088 0.573880 2.102886
v -2.104105 0.571898 2.102886
v -2.104105 0.573880 2.104782
v -1.806089 0.573880 2.102886
v -1.808072 0.573880 2.104782
v -1.808072 0.571898 2.102886
v -1.806088 0.573880 1.113106
v -1.808072 0.571898 1.113106
v -1.808072 0.573880 1.111210
v -2.106088 0.573880 1.113105
v -2.104105 0.573880 1.111209
v -2.104105 0.571898 1.113105
v -2.106088 0.592416 1.113105
v -2.104105 0.594399 1.113105
v -2.104105 0.592416 1.111209
v -1.806088 0.592416 1.113106
v -1.808072 0.592416 1.111210
v -1.808072 0.594399 1.113106
v -1.806089 0.592416 2.102886
v -1.808072 0.594399 2.102886
v -1.808072 0.592416 2.104782
v -2.106088 0.592416 2.102886
v -2.104105 0.592416 2.104782
v -2.104105 0.594399 2.102886
v -2.106088 0.041613 2.102886
v -2.104105 0.041613 2.104782
v -2.104105 0.043596 2.102886
v -1.806089 0.041613 2.102886
v -1.808072 0.043596 2.102886
v -1.808072 0.041613 2.104782
v -1.806088 0.041613 1.113105
v -1.808072 0.041613 1.111209
v -1.808072 0.043596 1.113105
v -2.106088 0.041613 1.113105
v -2.104105 0.043596 1.113105
v -2.104105 0.041613 1.111209
v -2.106088 0.028021 1.113105
v -2.104105 0.028021 1.111209
v -2.104105 0.026038 1.113105
v -1.806088 0.028021 1.113105
v -1.808072 0.026038 1.113105
v -1.808072 0.028021 1.111209
v -1.806089 0.028021 2.102886
v -1.808072 0.028021 2.104782
v -1.808072 0.026038 2.102886
v -2.106088 0.028021 2.102886
v -2.104105 0.026038 2.102886
v -2.104105 0.028021 2.104782
v -2.106088 0.045578 1.131542
v -2.104105 0.043596 1.131542
v -2.104105 0.045578 1.133438
v -1.806088 0.045578 1.131542
v -1.808072 0.045578 1.133438
v -1.808072 0.043596 1.131542
v -2.106088 0.569915 1.131542
v -2.104105 0.569915 1.133438
v -2.104105 0.571898 1.131542
v -1.806088 0.569915 1.131542
v -1.808072 0.571898 1.131542
v -1.808072 0.569915 1.133438
v -1.806088 0.569915 1.113106
v -1.808072 0.569915 1.111210
v -1.808072 0.571898 1.113106
v -2.106088 0.569915 1.113105
v -2.104105 0.571898 1.113105
v -2.104105 0.569915 1.111209
v -1.806088 0.045578 1.113106
v -1.808072 0.043596 1.113106
v -1.808072 0.045578 1.111210
v -2.106088 0.045578 1.113105
v -2.104105 0.045578 1.111209
v -2.104105 0.043596 1.113105
v -2.104105 0.045578 2.082553
v -2.104105 0.043596 2.084449
v -2.106088 0.045578 2.084449
v -1.808072 0.045578 2.082554
v -1.806088 0.045578 2.084450
v -1.808072 0.043596 2.084450
v -2.104105 0.569915 2.082553
v -2.106088 0.569915 2.084449
v -2.104105 0.571898 2.084449
v -1.808072 0.569915 2.082554
v -1.808072 0.571898 2.084450
v -1.806088 0.569915 2.084450
v -1.808072 0.569915 2.104782
v -1.806088 0.569915 2.102886
v -1.808072 0.571898 2.102886
v -2.104105 0.569915 2.104782
v -2.104105 0.571898 2.102886
v -2.106088 0.569915 2.102886
v -1.808072 0.045578 2.104782
v -1.808072 0.043596 2.102886
v -1.806088 0.045578 2.102886
v -2.104105 0.045578 2.104782
v -2.106088 0.045578 2.102886
v -2.104105 0.043596 2.102886
v -2.104105 0.571898 2.080657
v -2.106088 0.569915 2.080657
v -2.104105 0.569915 2.082553
v -2.104105 0.043596 2.080657
v -2.104105 0.045578 2.082553
v -2.106088 0.045578 2.080657
v -2.104105 0.571898 1.135334
v -2.104105 0.569915 1.133438
v -2.106088 0.569915 1.135334
v -2.104105 0.043596 1.135334
v -2.106088 0.045578 1.135334
v -2.104105 0.045578 1.133438
v -2.086893 0.043596 1.135334
v -2.086893 0.045578 1.133438
v -2.084910 0.045578 1.135334
v -2.086893 0.571898 1.135334
v -2.084910 0.569915 1.135334
v -2.086893 0.569915 1.133438
v -2.086893 0.043596 2.080657
v -2.084910 0.045578 2.080657
v -2.086893 0.045578 2.082553
v -2.086893 0.571898 2.080657
v -2.086893 0.569915 2.082553
v -2.084910 0.569915 2.080657
v -1.809640 0.181479 1.149346
v -1.807657 0.179496 1.149346
v -1.809640 0.179496 1.147450
v -1.809640 0.058604 1.149346
v -1.809640 0.060586 1.147450
v -1.807657 0.060586 1.149346
v -1.809640 0.181479 2.066402
v -1.809640 0.179496 2.068298
v -1.807657 0.179496 2.066402
v -1.809640 0.058604 2.066402
v -1.807657 0.060586 2.066402
v -1.809640 0.060586 2.068298
v -1.825480 0.179496 2.059214
v -1.821513 0.181479 2.061110
v -1.823496 0.179496 2.057318
v -1.825480 0.179496 1.156534
v -1.823496 0.179496 1.158430
v -1.821513 0.181479 1.154638
v -1.825480 0.071686 1.156534
v -1.825480 0.069703 1.158430
v -1.823496 0.071686 1.158430
v -1.825480 0.071686 2.059214
v -1.823496 0.071686 2.057318
v -1.825480 0.069703 2.057318
v -1.825480 0.196543 2.059214
v -1.823496 0.196543 2.057318
v -1.825480 0.194561 2.057318
v -1.825480 0.196543 1.156534
v -1.825480 0.194561 1.158430
v -1.823496 0.196543 1.158430
v -1.825480 0.304354 1.156534
v -1.823496 0.304354 1.158430
v -1.821513 0.306336 1.154638
v -1.825480 0.304354 2.059214
v -1.821513 0.306336 2.061110
v -1.823496 0.304354 2.057318
v -1.807657 0.185444 2.066402
v -1.809640 0.185444 2.068298
v -1.809640 0.183461 2.066402
v -1.807657 0.304354 2.066402
v -1.809640 0.306336 2.066402
v -1.809640 0.304354 2.068298
v -1.807657 0.185444 1.149346
v -1.809640 0.183461 1.149346
v -1.809640 0.185444 1.147450
v -1.807657 0.304354 1.149346
v -1.809640 0.304354 1.147450
v -1.809640 0.306336 1.149346
v -1.809640 0.429443 1.147450
v -1.809640 0.431426 1.149346
v -1.807657 0.429443 1.149346
v -1.807657 0.310533 1.149346
v -1.809640 0.308550 1.149346
v -1.809640 0.310533 1.147450
v -1.809640 0.429443 2.068298
v -1.807657 0.429443 2.066402
v -1.809640 0.431426 2.066402
v -1.807657 0.310533 2.066402
v -1.809640 0.310533 2.068298
v -1.809640 0.308550 2.066402
v -1.825480 0.429443 2.059214
v -1.821513 0.431426 2.061110
v -1.823496 0.429443 2.057318
v -1.825480 0.429443 1.156534
v -1.823496 0.429443 1.158430
v -1.821513 0.431426 1.154638
v -1.825480 0.321632 1.156534
v -1.825480 0.319650 1.158430
v -1.823496 0.321632 1.158430
v -1.825480 0.321632 2.059214
v -1.823496 0.321632 2.057318
v -1.825480 0.319650 2.057318
v -1.823496 0.446981 2.057318
v -1.825480 0.444998 2.057318
v -1.825480 0.446981 2.059214
v -1.823496 0.446981 1.158430
v -1.825480 0.446981 1.156534
v -1.825480 0.444998 1.158430
v -1.823496 0.554792 1.158430
v -1.821513 0.556774 1.154638
v -1.825480 0.554792 1.156534
v -1.823496 0.554792 2.057318
v -1.825480 0.554792 2.059214
v -1.821513 0.556774 2.061110
v -1.807657 0.435882 2.066402
v -1.809640 0.435882 2.068298
v -1.809640 0.433899 2.066402
v -1.807657 0.554792 2.066402
v -1.809640 0.556774 2.066402
v -1.809640 0.554792 2.068298
v -1.807657 0.435882 1.149346
v -1.809640 0.433899 1.149346
v -1.809640 0.435882 1.147450
v -1.807657 0.554792 1.149346
v -1.809640 0.554792 1.147450
v -1.809640 0.556774 1.149346
v -2.106088 0.041613 1.113105
v -2.106088 0.041613 2.102886
v -2.104105 0.043596 2.102886
v -2.104105 0.043596 1.113105
v -1.808072 0.043596 1.113105
v -1.808072 0.043596 2.102886
v -1.806089 0.041613 2.102886
v -1.806088 0.041613 1.113105
v -1.806088 0.028021 1.113105
v -1.806089 0.028021 2.102886
v -1.808072 0.026038 2.102886
v -1.808072 0.026038 1.113105
v -2.104105 0.026038 1.113105
v -2.104105 0.026038 2.102886
v -2.106088 0.028021 2.102886
v -2.106088 0.028021 1.113105
v -1.808072 0.043596 2.102886
v -2.104105 0.043596 2.102886
v -2.104105 0.041613 2.104782
v -1.808072 0.041613 2.104782
v -1.808072 0.041613 1.111209
v -2.104105 0.041613 1.111209
v -2.104105 0.043596 1.113105
v -1.808072 0.043596 1.113105
v -1.808072 0.026038 1.113105
v -2.104105 0.026038 1.113105
v -2.104105 0.028021 1.111209
v -1.808072 0.028021 1.111209
v -1.808072 0.028021 2.104782
v -2.104105 0.028021 2.104782
v -2.104105 0.026038 2.102886
v -1.808072 0.026038 2.102886
v -2.104105 0.028021 2.104782
v -2.104105 0.041613 2.104782
v -2.106088 0.041613 2.102886
v -2.106088 0.028021 2.102886
v -1.806089 0.028021 2.102886
v -1.806089 0.041613 2.102886
v -1.808072 0.041613 2.104782
v -1.808072 0.028021 2.104782
v -2.106088 0.028021 1.113105
v -2.106088 0.041613 1.113105
v -2.104105 0.041613 1.111209
v -2.104105 0.028021 1.111209
v -1.808072 0.028021 1.111209
v -1.808072 0.041613 1.111209
v -1.806088 0.041613 1.113105
v -1.806088 0.028021 1.113105
v -2.104105 0.571898 1.113105
v -2.104105 0.571898 2.102886
v -2.106088 0.573880 2.102886
v -2.106088 0.573880 1.113105
v -1.806088 0.573880 1.113106
v -1.806089 0.573880 2.102886
v -1.808072 0.571898 2.102886
v -1.808072 0.571898 1.113106
v -1.808072 0.594399 1.113106
v -1.808072 0.594399 2.102886
v -1.806089 0.592416 2.102886
v -1.806088 0.592416 1.113106
v -2.106088 0.592416 1.113105
v -2.106088 0.592416 2.102886
v -2.104105 0.594399 2.102886
v -2.104105 0.594399 1.113105
v -2.104105 0.571898 2.102886
v -1.808072 0.571898 2.102886
v -1.808072 0.573880 2.104782
v -2.104105 0.573880 2.104782
v -2.104105 0.573880 1.111209
v -1.808072 0.573880 1.111210
v -1.808072 0.571898 1.113106
v -2.104105 0.571898 1.113105
v -2.104105 0.594399 1.113105
v -1.808072 0.594399 1.113106
v -1.808072 0.592416 1.111210
v -2.104105 0.592416 1.111209
v -2.104105 0.592416 2.104782
v -1.808072 0.592416 2.104782
v -1.808072 0.594399 2.102886
v -2.104105 0.594399 2.102886
v -1.808072 0.573880 1.111210
v -1.808072 0.592416 1.111210
v -1.806088 0.592416 1.113106
v -1.806088 0.573880 1.113106
v -2.106088 0.573880 1.113105
v -2.106088 0.592416 1.113105
v -2.104105 0.592416 1.111209
v -2.104105 0.573880 1.111209
v -1.806089 0.573880 2.102886
v -1.806089 0.592416 2.102886
v -1.808072 0.592416 2.104782
v -1.808072 0.573880 2.104782
v -2.104105 0.573880 2.104782
v -2.104105 0.592416 2.104782
v -2.106088 0.592416 2.102886
v -2.106088 0.573880 2.102886
v -1.808072 0.043596 2.084450
v -2.104105 0.043596 2.084449
v -2.104105 0.045578 2.082553
v -1.808072 0.045578 2.082554
v -1.808072 0.569915 2.082554
v -2.104105 0.569915 2.082553
v -2.104105 0.571898 2.084449
v -1.808072 0.571898 2.084450
v -1.808072 0.571898 2.102886
v -2.104105 0.571898 2.102886
v -2.104105 0.569915 2.104782
v -1.808072 0.569915 2.104782
v -1.808072 0.045578 2.104782
v -2.104105 0.045578 2.104782
v -2.104105 0.043596 2.102886
v -1.808072 0.043596 2.102886
v -2.106088 0.569915 2.084449
v -2.106088 0.569915 2.102886
v -2.104105 0.571898 2.102886
v -2.104105 0.571898 2.084449
v -2.104105 0.043596 2.084449
v -2.104105 0.043596 2.102886
v -2.106088 0.045578 2.102886
v -2.106088 0.045578 2.084449
v -1.806088 0.045578 2.084450
v -1.806088 0.045578 2.102886
v -1.808072 0.043596 2.102886
v -1.808072 0.043596 2.084450
v -1.808072 0.571898 2.084450
v -1.808072 0.571898 2.102886
v -1.806088 0.569915 2.102886
v -1.806088 0.569915 2.084450
v -2.104105 0.569915 2.082553
v -2.104105 0.045578 2.082553
v -2.106088 0.045578 2.084449
v -2.106088 0.569915 2.084449
v -1.806088 0.569915 2.084450
v -1.806088 0.045578 2.084450
v -1.808072 0.045578 2.082554
v -1.808072 0.569915 2.082554
v -1.808072 0.569915 2.104782
v -1.808072 0.045578 2.104782
v -1.806088 0.045578 2.102886
v -1.806088 0.569915 2.102886
v -2.106088 0.569915 2.102886
v -2.106088 0.045578 2.102886
v -2.104105 0.045578 2.104782
v -2.104105 0.569915 2.104782
v -2.106088 0.569915 1.131542
v -2.106088 0.045578 1.131542
v -2.104105 0.045578 1.133438
v -2.104105 0.569915 1.133438
v -1.808072 0.569915 1.133438
v -1.808072 0.045578 1.133438
v -1.806088 0.045578 1.131542
v -1.806088 0.569915 1.131542
v -1.806088 0.569915 1.113106
v -1.806088 0.045578 1.113106
v -1.808072 0.045578 1.111210
v -1.808072 0.569915 1.111210
v -2.104105 0.569915 1.111209
v -2.104105 0.045578 1.111209
v -2.106088 0.045578 1.113105
v -2.106088 0.569915 1.113105
v -1.808072 0.045578 1.133438
v -2.104105 0.045578 1.133438
v -2.104105 0.043596 1.131542
v -1.808072 0.043596 1.131542
v -1.808072 0.571898 1.131542
v -2.104105 0.571898 1.131542
v -2.104105 0.569915 1.133438
v -1.808072 0.569915 1.133438
v -1.808072 0.569915 1.111210
v -2.104105 0.569915 1.111209
v -2.104105 0.571898 1.113105
v -1.808072 0.571898 1.113106
v -1.808072 0.043596 1.113106
v -2.104105 0.043596 1.113105
v -2.104105 0.045578 1.111209
v -1.808072 0.045578 1.111210
v -1.808072 0.571898 1.113106
v -1.808072 0.571898 1.131542
v -1.806088 0.569915 1.131542
v -1.806088 0.569915 1.113106
v -1.806088 0.045578 1.113106
v -1.806088 0.045578 1.131542
v -1.808072 0.043596 1.131542
v -1.808072 0.043596 1.113106
v -2.104105 0.043596 1.113105
v -2.104105 0.043596 1.131542
v -2.106088 0.045578 1.131542
v -2.106088 0.045578 1.113105
v -2.106088 0.569915 1.113105
v -2.106088 0.569915 1.131542
v -2.104105 0.571898 1.131542
v -2.104105 0.571898 1.113105
v -1.809640 0.181479 2.066402
v -2.075336 0.181479 2.066402
v -2.075336 0.179496 2.068298
v -1.809640 0.179496 2.068298
v -1.809640 0.060586 2.068298
v -2.075336 0.060586 2.068298
v -2.075336 0.058604 2.066402
v -1.809640 0.058604 2.066402
v -1.809640 0.058604 1.149346
v -2.075336 0.058604 1.149346
v -2.075336 0.060586 1.147450
v -1.809640 0.060586 1.147450
v -1.809640 0.179496 1.147450
v -2.075336 0.179496 1.147450
v -2.075336 0.181479 1.149346
v -1.809640 0.181479 1.149346
v -2.075336 0.069703 1.158430
v -1.825480 0.069703 1.158430
v -1.825480 0.071686 1.156534
v -2.075336 0.071686 1.156534
v -2.075336 0.071686 2.059214
v -1.825480 0.071686 2.059214
v -1.825480 0.069703 2.057318
v -2.075336 0.069703 2.057318
v -2.075336 0.181479 2.061110
v -1.821513 0.181479 2.061110
v -1.825480 0.179496 2.059214
v -2.075336 0.179496 2.059214
v -2.075336 0.179496 1.156534
v -1.825480 0.179496 1.156534
v -1.821513 0.181479 1.154638
v -2.075336 0.181479 1.154638
v -1.807657 0.179496 1.149346
v -1.807657 0.060586 1.149346
v -1.809640 0.060586 1.147450
v -1.809640 0.179496 1.147450
v -1.809640 0.179496 2.068298
v -1.809640 0.060586 2.068298
v -1.807657 0.060586 2.066402
v -1.807657 0.179496 2.066402
v -1.809640 0.058604 2.066402
v -1.809640 0.058604 1.149346
v -1.807657 0.060586 1.149346
v -1.807657 0.060586 2.066402
v -1.807657 0.179496 2.066402
v -1.807657 0.179496 1.149346
v -1.809640 0.181479 1.149346
v -1.809640 0.181479 2.066402
v -1.821513 0.181479 2.061110
v -1.821513 0.181479 1.154638
v -1.823496 0.179496 1.158430
v -1.823496 0.179496 2.057318
v -1.823496 0.071686 2.057318
v -1.823496 0.071686 1.158430
v -1.825480 0.069703 1.158430
v -1.825480 0.069703 2.057318
v -1.823496 0.071686 1.158430
v -1.823496 0.179496 1.158430
v -1.825480 0.179496 1.156534
v -1.825480 0.071686 1.156534
v -1.825480 0.071686 2.059214
v -1.825480 0.179496 2.059214
v -1.823496 0.179496 2.057318
v -1.823496 0.071686 2.057318
v -1.807657 0.185444 2.066402
v -1.807657 0.304354 2.066402
v -1.809640 0.304354 2.068298
v -1.809640 0.185444 2.068298
v -1.809640 0.185444 1.147450
v -1.809640 0.304354 1.147450
v -1.807657 0.304354 1.149346
v -1.807657 0.185444 1.149346
v -1.821513 0.306336 1.154638
v -2.075336 0.306336 1.154638
v -2.075336 0.304354 1.156534
v -1.825480 0.304354 1.156534
v -1.825480 0.304354 2.059214
v -2.075336 0.304354 2.059214
v -2.075336 0.306336 2.061110
v -1.821513 0.306336 2.061110
v -1.825480 0.194561 2.057318
v -2.075336 0.194561 2.057318
v -2.075336 0.196543 2.059214
v -1.825480 0.196543 2.059214
v -1.825480 0.196543 1.156534
v -2.075336 0.196543 1.156534
v -2.075336 0.194561 1.158430
v -1.825480 0.194561 1.158430
v -1.809640 0.304354 1.147450
v -2.075336 0.304354 1.147450
v -2.075336 0.306336 1.149346
v -1.809640 0.306336 1.149346
v -1.809640 0.183461 1.149346
v -2.075336 0.183461 1.149346
v -2.075336 0.185444 1.147450
v -1.809640 0.185444 1.147450
v -1.809640 0.185444 2.068298
v -2.075336 0.185444 2.068298
v -2.075336 0.183461 2.066402
v -1.809640 0.183461 2.066402
v -1.809640 0.306336 2.066402
v -2.075336 0.306336 2.066402
v -2.075336 0.304354 2.068298
v -1.809640 0.304354 2.068298
v -1.823496 0.196543 2.057318
v -1.823496 0.196543 1.158430
v -1.825480 0.194561 1.158430
v -1.825480 0.194561 2.057318
v -1.821513 0.306336 2.061110
v -1.821513 0.306336 1.154638
v -1.823496 0.304354 1.158430
v -1.823496 0.304354 2.057318
v -1.807657 0.304354 2.066402
v -1.807657 0.304354 1.149346
v -1.809640 0.306336 1.149346
v -1.809640 0.306336 2.066402
v -1.807657 0.185444 1.149346
v -1.807657 0.185444 2.066402
v -1.809640 0.183461 2.066402
v -1.809640 0.183461 1.149346
v -1.825480 0.196543 2.059214
v -1.825480 0.304354 2.059214
v -1.823496 0.304354 2.057318
v -1.823496 0.196543 2.057318
v -1.825480 0.304354 1.156534
v -1.825480 0.196543 1.156534
v -1.823496 0.196543 1.158430
v -1.823496 0.304354 1.158430
v -1.807657 0.429443 1.149346
v -1.807657 0.310533 1.149346
v -1.809640 0.310533 1.147450
v -1.809640 0.429443 1.147450
v -1.809640 0.429443 2.068298
v -1.809640 0.310533 2.068298
v -1.807657 0.310533 2.066402
v -1.807657 0.429443 2.066402
v -2.075336 0.319650 1.158430
v -1.825480 0.319650 1.158430
v -1.825480 0.321632 1.156534
v -2.075336 0.321632 1.156534
v -2.075336 0.321632 2.059214
v -1.825480 0.321632 2.059214
v -1.825480 0.319650 2.057318
v -2.075336 0.319650 2.057318
v -2.075336 0.431426 2.061110
v -1.821513 0.431426 2.061110
v -1.825480 0.429443 2.059214
v -2.075336 0.429443 2.059214
v -2.075336 0.429443 1.156534
v -1.825480 0.429443 1.156534
v -1.821513 0.431426 1.154638
v -2.075336 0.431426 1.154638
v -2.075336 0.310533 1.147450
v -1.809640 0.310533 1.147450
v -1.809640 0.308550 1.149346
v -2.075336 0.308550 1.149346
v -2.075336 0.308550 2.066402
v -1.809640 0.308550 2.066402
v -1.809640 0.310533 2.068298
v -2.075336 0.310533 2.068298
v -1.809640 0.431426 1.149346
v -1.809640 0.431426 2.066402
v -1.807657 0.429443 2.066402
v -1.807657 0.429443 1.149346
v -1.823496 0.429443 1.158430
v -1.823496 0.429443 2.057318
v -1.821513 0.431426 2.061110
v -1.821513 0.431426 1.154638
v -1.825480 0.319650 1.158430
v -1.825480 0.319650 2.057318
v -1.823496 0.321632 2.057318
v -1.823496 0.321632 1.158430
v -1.807657 0.310533 1.149346
v -1.807657 0.310533 2.066402
v -1.809640 0.308550 2.066402
v -1.809640 0.308550 1.149346
v -2.075336 0.429443 2.068298
v -1.809640 0.429443 2.068298
v -1.809640 0.431426 2.066402
v -2.075336 0.431426 2.066402
v -2.075336 0.431426 1.149346
v -1.809640 0.431426 1.149346
v -1.809640 0.429443 1.147450
v -2.075336 0.429443 1.147450
v -1.823496 0.321632 1.158430
v -1.823496 0.429443 1.158430
v -1.825480 0.429443 1.156534
v -1.825480 0.321632 1.156534
v -1.825480 0.321632 2.059214
v -1.825480 0.429443 2.059214
v -1.823496 0.429443 2.057318
v -1.823496 0.321632 2.057318
v -1.809640 0.554792 2.068298
v -1.809640 0.435882 2.068298
v -1.807657 0.435882 2.066402
v -1.807657 0.554792 2.066402
v -1.807657 0.554792 1.149346
v -1.807657 0.435882 1.149346
v -1.809640 0.435882 1.147450
v -1.809640 0.554792 1.147450
v -1.825480 0.446981 2.059214
v -1.825480 0.554792 2.059214
v -1.823496 0.554792 2.057318
v -1.823496 0.446981 2.057318
v -1.823496 0.446981 1.158430
v -1.823496 0.554792 1.158430
v -1.825480 0.554792 1.156534
v -1.825480 0.446981 1.156534
v -1.809640 0.554792 1.147450
v -2.075336 0.554792 1.147450
v -2.075336 0.556774 1.149346
v -1.809640 0.556774 1.149346
v -1.809640 0.433899 1.149346
v -2.075336 0.433899 1.149346
v -2.075336 0.435882 1.147450
v -1.809640 0.435882 1.147450
v -1.809640 0.435882 2.068298
v -2.075336 0.435882 2.068298
v -2.075336 0.433899 2.066402
v -1.809640 0.433899 2.066402
v -1.809640 0.556774 2.066402
v -2.075336 0.556774 2.066402
v -2.075336 0.554792 2.068298
v -1.809640 0.554792 2.068298
v -1.821513 0.556774 1.154638
v -2.075336 0.556774 1.154638
v -2.075336 0.554792 1.156534
v -1.825480 0.554792 1.156534
v -1.825480 0.554792 2.059214
v -2.075336 0.554792 2.059214
v -2.075336 0.556774 2.061110
v -1.821513 0.556774 2.061110
v -1.825480 0.444998 2.057318
v -2.075336 0.444998 2.057318
v -2.075336 0.446981 2.059214
v -1.825480 0.446981 2.059214
v -1.825480 0.446981 1.156534
v -2.075336 0.446981 1.156534
v -2.075336 0.444998 1.158430
v -1.825480 0.444998 1.158430
v -1.809640 0.556774 1.149346
v -1.809640 0.556774 2.066402
v -1.807657 0.554792 2.066402
v -1.807657 0.554792 1.149346
v -1.825480 0.444998 1.158430
v -1.825480 0.444998 2.057318
v -1.823496 0.446981 2.057318
v -1.823496 0.446981 1.158430
v -1.823496 0.554792 1.158430
v -1.823496 0.554792 2.057318
v -1.821513 0.556774 2.061110
v -1.821513 0.556774 1.154638
v -1.807657 0.435882 1.149346
v -1.807657 0.435882 2.066402
v -1.809640 0.433899 2.066402
v -1.809640 0.433899 1.149346
v -2.104105 0.571898 2.080657
v -2.104105 0.571898 1.135334
v -2.106088 0.569915 1.135334
v -2.106088 0.569915 2.080657
v -2.106088 0.045578 2.080657
v -2.106088 0.045578 1.135334
v -2.104105 0.043596 1.135334
v -2.104105 0.043596 2.080657
v -2.086893 0.043596 2.080657
v -2.086893 0.043596 1.135334
v -2.084910 0.045578 1.135334
v -2.084910 0.045578 2.080657
v -2.084910 0.569915 2.080657
v -2.084910 0.569915 1.135334
v -2.086893 0.571898 1.135334
v -2.086893 0.571898 2.080657
v -2.104105 0.045578 2.082553
v -2.104105 0.569915 2.082553
v -2.106088 0.569915 2.080657
v -2.106088 0.045578 2.080657
v -2.104105 0.569915 1.133438
v -2.104105 0.045578 1.133438
v -2.106088 0.045578 1.135334
v -2.106088 0.569915 1.135334
v -2.084910 0.569915 1.135334
v -2.084910 0.045578 1.135334
v -2.086893 0.045578 1.133438
v -2.086893 0.569915 1.133438
v -2.086893 0.569915 2.082553
v -2.086893 0.045578 2.082553
v -2.084910 0.045578 2.080657
v -2.084910 0.569915 2.080657
v -2.086893 0.043596 1.135334
v -2.104105 0.043596 1.135334
v -2.104105 0.045578 1.133438
v -2.086893 0.045578 1.133438
v -2.086893 0.045578 2.082553
v -2.104105 0.045578 2.082553
v -2.104105 0.043596 2.080657
v -2.086893 0.043596 2.080657
v -2.086893 0.571898 2.080657
v -2.104105 0.571898 2.080657
v -2.104105 0.569915 2.082553
v -2.086893 0.569915 2.082553
v -2.086893 0.569915 1.133438
v -2.104105 0.569915 1.133438
v -2.104105 0.571898 1.135334
v -2.086893 0.571898 1.135334
vn 0.000000 0.000000 -1.000000
vn 0.000000 0.000000 -1.000000
vn 0.000000 0.000000 -1.000000
vn 0.000000 0.000000 -1.000000
vn 1.000000 0.000000 0.000000
vn 1.000000 0.000000 0.000000
vn 1.000000 0.000000 0.000000
vn 1.000000 0.000000 0.000000
vn 0.000000 1.000000 0.000000
vn 0.000000 1.000000 0.000000
vn 0.000000 1.000000 0.000000
vn 0.000000 1.000000 0.000000
vn 1.000000 0.000000 0.000000
vn 1.000000 0.000000 0.000000
vn 1.000000 0.000000 0.000000
vn 1.000000 0.000000 0.000000
vn -1.000000 0.000000 0.000000
vn -1.000000 0.000000 0.000000
vn -1.000000 0.000000 0.000000
vn -1.000000 0.000000 0.000000
vn 0.000000 -1.000000 0.000000
vn 0.000000 -1.000000 0.000000
vn 0.000000 -1.000000 0.000000
vn 0.000000 -1.000000 0.000000
vn -1.000000 0.000000 0.000000
vn -1.000000 0.000000 0.000000
vn -1.000000 0.000000 0.000000
vn -1.000000 0.000000 0.000000
vn -1.000000 0.000000 0.000000
vn -1.000000 0.000000 0.000000
vn -1.000000 0.000000 0.000000
vn -1.000000 0.000000 0.000000
vn 0.000000 1.000000 0.000000
vn 0.000000 1.000000 0.000000
vn 0.000000 1.000000 0.000000
vn 0.000000 1.000000 0.000000
vn 1.000000 0.000000 0.000000
vn 1.000000 0.000000 0.000000
vn 1.000000 0.000000 0.000000
vn 1.000000 0.000000 0.000000
vn 0.000000 0.000000 -1.000000
vn 0.000000 0.000000 -1.000000
vn 0.000000 0.000000 -1.000000
vn 0.000000 0.000000 -1.000000
vn 0.000000 -1.000000 0.000000
vn 0.000000 -1.000000 0.000000
vn 0.000000 -1.000000 0.000000
vn 0.000000 -1.000000 0.000000
vn 0.000000 0.000000 -1.000000
vn 0.000000 0.000000 -1.000000
vn 0.000000 0.000000 -1.000000
vn 0.000000 0.000000 -1.000000
vn 0.000000 0.000000 1.000000
vn 0.000000 0.000000 1.000000
vn 0.000000 0.000000 1.000000
vn 0.000000 0.000000 1.000000
vn 0.000000 0.000000 1.000000
vn 0.000000 0.000000 1.000000
vn 0.000000 0.000000 1.000000
vn 0.000000 0.000000 1.000000
vn 0.000000 0.000000 1.000000
vn 0.000000 0.000000 1.000000
vn 0.000000 0.000000 1.000000
vn 0.000000 0.000000 1.000000
vn 0.000000 1.000000 0.000000
vn 0.000000 1.000000 0.000000
vn 0.000000 1.000000 0.000000
vn 0.000000 1.000000 0.000000
vn 1.000000 0.000000 0.000000
vn 1.000000 0.000000 0.000000
vn 1.000000 0.000000 0.000000
vn 1.000000 0.000000 0.000000
vn 0.000000 1.000000 0.000000
vn 0.000000 1.000000 0.000000
vn 0.000000 1.000000 0.000000
vn 0.000000 1.000000 0.000000
vn 0.000000 1.000000 0.000000
vn 0.000000 1.000000 0.000000
vn 0.000000 1.000000 0.000000
vn 0.000000 1.000000 0.000000
vn 0.000000 1.000000 0.000000
vn 0.000000 1.000000 0.000000
vn 0.000000 1.000000 0.000000
vn 0.000000 1.000000 0.000000
vn 0.000000 1.000000 0.000000
vn 0.000000 1.000000 0.000000
vn 0.000000 1.000000 0.000000
vn 0.000000 1.000000 0.000000
vn 0.000000 0.000000 -1.000000
vn 0.000000 0.000000 -1.000000
vn 0.000000 0.000000 -1.000000
vn 0.000000 0.000000 -1.000000
vn 1.000000 0.000000 0.000000
vn 1.000000 0.000000 0.000000
vn 1.000000 0.000000 0.000000
vn 1.000000 0.000000 0.000000
vn 0.000000 0.000000 -1.000000
vn 0.000000 0.000000 -1.000000
vn 0.000000 0.000000 -1.000000
vn 0.000000 0.000000 -1.000000
vn 1.000000 0.000000 0.000000
vn 1.000000 0.000000 0.000000
vn 1.000000 0.000000 0.000000
vn 1.000000 0.000000 0.000000
vn 0.000000 -1.000000 0.000000
vn 0.000000 -1.000000 0.000000
vn 0.000000 -1.000000 0.000000
vn 0.000000 -1.000000 0.000000
vn 0.000000 0.000000 1.000000
vn 0.000000 0.000000 1.000000
vn 0.000000 0.000000 1.000000
vn 0.000000 0.000000 1.000000
vn 0.000000 0.000000 1.000000
vn 0.000000 0.000000 1.000000
vn 0.000000 0.000000 1.000000
vn 0.000000 0.000000 1.000000
vn 0.000000 0.000000 1.000000
vn 0.000000 0.000000 1.000000
vn 0.000000 0.000000 1.000000
vn 0.000000 0.000000 1.000000
vn -1.000000 0.000000 0.000000
vn -1.000000 0.000000 0.000000
vn -1.000000 0.000000 0.000000
vn -1.000000 0.000000 0.000000
vn 0.000000 -1.000000 0.000000
vn 0.000000 -1.000000 0.000000
vn 0.000000 -1.000000 0.000000
vn 0.000000 -1.000000 0.000000
vn 0.000000 0.000000 -1.000000
vn 0.000000 0.000000 -1.000000
vn 0.000000 0.000000 -1.000000
vn 0.000000 0.000000 -1.000000
vn 0.000000 1.000000 0.000000
vn 0.000000 1.000000 0.000000
vn 0.000000 1.000000 0.000000
vn 0.000000 1.000000 0.000000
vn 0.000000 1.000000 0.000000
vn 0.000000 1.000000 0.000000
vn 0.000000 1.000000 0.000000
vn 0.000000 1.000000 0.000000
vn 0.000000 0.000000 -1.000000
vn 0.000000 0.000000 -1.000000
vn 0.000000 0.000000 -1.000000
vn 0.000000 0.000000 -1.000000
vn 0.000000 0.000000 1.000000
vn 0.000000 0.000000 1.000000
vn 0.000000 0.000000 1.000000
vn 0.000000 0.000000 1.000000
vn -1.000000 0.000000 0.000000
vn -1.000000 0.000000 0.000000
vn -1.000000 0.000000 0.000000
vn -1.000000 0.000000 0.000000
vn -1.000000 0.000000 0.000000
vn -1.000000 0.000000 0.000000
vn -1.000000 0.000000 0.000000
vn -1.000000 0.000000 0.000000
vn 0.000000 0.000000 1.000000
vn 0.000000 0.000000 1.000000
vn 0.000000 0.000000 1.000000
vn 0.000000 0.000000 1.000000
vn 0.000000 -1.000000 0.000000
vn 0.000000 -1.000000 0.000000
vn 0.000000 -1.000000 0.000000
vn 0.000000 -1.000000 0.000000
vn 1.000000 0.000000 0.000000
vn 1.000000 0.000000 0.000000
vn 1.000000 0.000000 0.000000
vn 1.000000 0.000000 0.000000
vn -1.000000 0.000000 0.000000
vn -1.000000 0.000000 0.000000
vn -1.000000 0.000000 0.000000
vn -1.000000 0.000000 0.000000
vn 0.000000 0.000000 -1.000000
vn 0.000000 0.000000 -1.000000
vn 0.000000 0.000000 -1.000000
vn 0.000000 0.000000 -1.000000
vn 0.000000 1.000000 0.000000
vn 0.000000 1.000000 0.000000
vn 0.000000 1.000000 0.000000
vn 0.000000 1.000000 0.000000
vn 0.000000 0.000000 -1.000000
vn 0.000000 0.000000 -1.000000
vn 0.000000 0.000000 -1.000000
vn 0.000000 0.000000 -1.000000
vn 1.000000 0.000000 0.000000
vn 1.000000 0.000000 0.000000
vn 1.000000 0.000000 0.000000
vn 1.000000 0.000000 0.000000
vn 0.000000 0.000000 -1.000000
vn 0.000000 0.000000 -1.000000
vn 0.000000 0.000000 -1.000000
vn 0.000000 0.000000 -1.000000
vn 0.000000 0.000000 1.000000
vn 0.000000 0.000000 1.000000
vn 0.000000 0.000000 1.000000
vn 0.000000 0.000000 1.000000
vn 0.000000 1.000000 0.000000
vn 0.000000 1.000000 0.000000
vn 0.000000 1.000000 0.000000
vn 0.000000 1.000000 0.000000
vn 0.000000 1.000000 0.000000
vn 0.000000 1.000000 0.000000
vn 0.000000 1.000000 0.000000
vn 0.000000 1.000000 0.000000
vn 0.000000 0.000000 1.000000
vn 0.000000 0.000000 1.000000
vn 0.000000 0.000000 1.000000
vn 0.000000 0.000000 1.000000
vn 0.000000 -1.000000 0.000000
vn 0.000000 -1.000000 0.000000
vn 0.000000 -1.000000 0.000000
vn 0.000000 -1.000000 0.000000
vn 0.000000 1.000000 0.000000
vn 0.000000 1.000000 0.000000
vn 0.000000 1.000000 0.000000
vn 0.000000 1.000000 0.000000
vn -1.000000 0.000000 0.000000
vn -1.000000 0.000000 0.000000
vn -1.000000 0.000000 0.000000
vn -1.000000 0.000000 0.000000
vn 0.000000 1.000000 0.000000
vn 0.000000 1.000000 0.000000
vn 0.000000 1.000000 0.000000
vn 0.000000 1.000000 0.000000
vn 0.000000 1.000000 0.000000
vn 0.000000 1.000000 0.000000
vn 0.000000 1.000000 0.000000
vn 0.000000 1.000000 0.000000
vn 0.000000 1.000000 0.000000
vn 0.000000 1.000000 0.000000
vn 0.000000 1.000000 0.000000
vn 0.000000 1.000000 0.000000
vn 0.000000 0.000000 -1.000000
vn 0.000000 0.000000 -1.000000
vn 0.000000 0.000000 -1.000000
vn 0.000000 0.000000 -1.000000
vn 0.000000 -1.000000 0.000000
vn 0.000000 -1.000000 0.000000
vn 0.000000 -1.000000 0.000000
vn 0.000000 -1.000000 0.000000
vn 0.000000 -1.000000 0.000000
vn 0.000000 -1.000000 0.000000
vn 0.000000 -1.000000 0.000000
vn 0.000000 -1.000000 0.000000
vn -1.000000 0.000000 0.000000
vn -1.000000 0.000000 0.000000
vn -1.000000 0.000000 0.000000
vn -1.000000 0.000000 0.000000
vn 0.000000 0.000000 1.000000
vn 0.000000 0.000000 1.000000
vn 0.000000 0.000000 1.000000
vn 0.000000 0.000000 1.000000
vn 0.000000 -1.000000 0.000000
vn 0.000000 -1.000000 0.000000
vn 0.000000 -1.000000 0.000000
vn 0.000000 -1.000000 0.000000
vn 0.000000 0.000000 -1.000000
vn 0.000000 0.000000 -1.000000
vn 0.000000 0.000000 -1.000000
vn 0.000000 0.000000 -1.000000
vn 0.000000 0.000000 1.000000
vn 0.000000 0.000000 1.000000
vn 0.000000 0.000000 1.000000
vn 0.000000 0.000000 1.000000
vn 0.000000 0.000000 -1.000000
vn 0.000000 0.000000 -1.000000
vn 0.000000 0.000000 -1.000000
vn 0.000000 0.000000 -1.000000
vn 1.000000 0.000000 0.000000
vn 1.000000 0.000000 0.000000
vn 1.000000 0.000000 0.000000
vn 1.000000 0.000000 0.000000
vn 0.000000 1.000000 0.000000
vn 0.000000 1.000000 0.000000
vn 0.000000 1.000000 0.000000
vn 0.000000 1.000000 0.000000
vn 0.000000 0.000000 1.000000
vn 0.000000 0.000000 1.000000
vn 0.000000 0.000000 1.000000
vn 0.000000 0.000000 1.000000
vn -0.568300 -0.568700 0.594600
vn -0.568300 -0.568700 0.594600
vn -0.568300 -0.568700 0.594600
vn 0.568400 -0.568600 0.594600
vn 0.568400 -0.568600 0.594600
vn 0.568400 -0.568600 0.594600
vn 0.568400 -0.568700 -0.594600
vn 0.568400 -0.568700 -0.594600
vn 0.568400 -0.568700 -0.594600
vn -0.568400 -0.568600 -0.594600
vn -0.568400 -0.568600 -0.594600
vn -0.568400 -0.568600 -0.594600
vn -0.568400 0.568600 -0.594600
vn -0.568400 0.568600 -0.594600
vn -0.568400 0.568600 -0.594600
vn 0.568400 0.568700 -0.594600
vn 0.568400 0.568700 -0.594600
vn 0.568400 0.568700 -0.594600
vn 0.568400 0.568600 0.594600
vn 0.568400 0.568600 0.594600
vn 0.568400 0.568600 0.594600
vn -0.568300 0.568700 0.594600
vn -0.568300 0.568700 0.594600
vn -0.568300 0.568700 0.594600
vn -0.568300 0.568700 0.594600
vn -0.568300 0.568700 0.594600
vn -0.568300 0.568700 0.594600
vn 0.568400 0.568600 0.594600
vn 0.568400 0.568600 0.594600
vn 0.568400 0.568600 0.594600
vn 0.568400 0.568600 -0.594600
vn 0.568400 0.568600 -0.594600
vn 0.568400 0.568600 -0.594600
vn -0.568400 0.568600 -0.594600
vn -0.568400 0.568600 -0.594600
vn -0.568400 0.568600 -0.594600
vn -0.568400 -0.568600 -0.594600
vn -0.568400 -0.568600 -0.594600
vn -0.568400 -0.568600 -0.594600
vn 0.568400 -0.568600 -0.594600
vn 0.568400 -0.568600 -0.594600
vn 0.568400 -0.568600 -0.594600
vn 0.568400 -0.568600 0.594600
vn 0.568400 -0.568600 0.594600
vn 0.568400 -0.568600 0.594600
vn -0.568300 -0.568700 0.594600
vn -0.568300 -0.568700 0.594600
vn -0.568300 -0.568700 0.594600
vn -0.568400 -0.568600 0.594700
vn -0.568400 -0.568600 0.594700
vn -0.568400 -0.568600 0.594700
vn 0.568400 -0.568700 0.594600
vn 0.568400 -0.568700 0.594600
vn 0.568400 -0.568700 0.594600
vn -0.568400 0.568600 0.594600
vn -0.568400 0.568600 0.594600
vn -0.568400 0.568600 0.594600
vn 0.568400 0.568700 0.594600
vn 0.568400 0.568700 0.594600
vn 0.568400 0.568700 0.594600
vn 0.568400 0.568700 -0.594600
vn 0.568400 0.568700 -0.594600
vn 0.568400 0.568700 -0.594600
vn -0.568400 0.568700 -0.594600
vn -0.568400 0.568700 -0.594600
vn -0.568400 0.568700 -0.594600
vn 0.568400 -0.568600 -0.594600
vn 0.568400 -0.568600 -0.594600
vn 0.568400 -0.568600 -0.594600
vn -0.568500 -0.568600 -0.594600
vn -0.568500 -0.568600 -0.594600
vn -0.568500 -0.568600 -0.594600
vn -0.568400 -0.568600 -0.594700
vn -0.568400 -0.568600 -0.594700
vn -0.568400 -0.568600 -0.594700
vn 0.568400 -0.568600 -0.594600
vn 0.568400 -0.568600 -0.594600
vn 0.568400 -0.568600 -0.594600
vn -0.568400 0.568600 -0.594600
vn -0.568400 0.568600 -0.594600
vn -0.568400 0.568600 -0.594600
vn 0.568400 0.568600 -0.594600
vn 0.568400 0.568600 -0.594600
vn 0.568400 0.568600 -0.594600
vn 0.568300 0.568700 0.594600
vn 0.568300 0.568700 0.594600
vn 0.568300 0.568700 0.594600
vn -0.568500 0.568600 0.594500
vn -0.568500 0.568600 0.594500
vn -0.568500 0.568600 0.594500
vn 0.568300 -0.568700 0.594600
vn 0.568300 -0.568700 0.594600
vn 0.568300 -0.568700 0.594600
vn -0.568500 -0.568600 0.594600
vn -0.568500 -0.568600 0.594600
vn -0.568500 -0.568600 0.594600
vn -0.568600 0.568600 0.594500
vn -0.568600 0.568600 0.594500
vn -0.568600 0.568600 0.594500
vn -0.568500 -0.568600 0.594600
vn -0.568500 -0.568600 0.594600
vn -0.568500 -0.568600 0.594600
vn -0.568500 0.568600 -0.594500
vn -0.568500 0.568600 -0.594500
vn -0.568500 0.568600 -0.594500
vn -0.568500 -0.568600 -0.594600
vn -0.568500 -0.568600 -0.594600
vn -0.568500 -0.568600 -0.594600
vn 0.568500 -0.568600 -0.594600
vn 0.568500 -0.568600 -0.594600
vn 0.568500 -0.568600 -0.594600
vn 0.568500 0.568600 -0.594500
vn 0.568500 0.568600 -0.594500
vn 0.568500 0.568600 -0.594500
vn 0.568500 -0.568600 0.594600
vn 0.568500 -0.568600 0.594600
vn 0.568500 -0.568600 0.594600
vn 0.568600 0.568600 0.594500
vn 0.568600 0.568600 0.594500
vn 0.568600 0.568600 0.594500
vn 0.568400 0.568600 -0.594600
vn 0.568400 0.568600 -0.594600
vn 0.568400 0.568600 -0.594600
vn 0.568400 -0.568600 -0.594600
vn 0.568400 -0.568600 -0.594600
vn 0.568400 -0.568600 -0.594600
vn 0.568500 0.568600 0.594600
vn 0.568500 0.568600 0.594600
vn 0.568500 0.568600 0.594600
vn 0.568500 -0.568600 0.594600
vn 0.568500 -0.568600 0.594600
vn 0.568500 -0.568600 0.594600
vn -0.300100 0.900800 -0.313900
vn -0.300100 0.900800 -0.313900
vn -0.300100 0.900800 -0.313900
vn -0.300100 0.900700 0.313900
vn -0.300100 0.900700 0.313900
vn -0.300100 0.900700 0.313900
vn -0.568400 0.568600 0.594600
vn -0.568400 0.568600 0.594600
vn -0.568400 0.568600 0.594600
vn -0.568500 0.568500 -0.594600
vn -0.568500 0.568500 -0.594600
vn -0.568500 0.568500 -0.594600
vn -0.568400 0.568600 -0.594600
vn -0.568400 0.568600 -0.594600
vn -0.568400 0.568600 -0.594600
vn -0.568500 0.568600 0.594600
vn -0.568500 0.568600 0.594600
vn -0.568500 0.568600 0.594600
vn -0.300100 0.900800 0.313900
vn -0.300100 0.900800 0.313900
vn -0.300100 0.900800 0.313900
vn -0.300100 0.900800 -0.313900
vn -0.300100 0.900800 -0.313900
vn -0.300100 0.900800 -0.313900
vn 0.568500 -0.568600 0.594600
vn 0.568500 -0.568600 0.594600
vn 0.568500 -0.568600 0.594600
vn 0.568400 0.568600 0.594600
vn 0.568400 0.568600 0.594600
vn 0.568400 0.568600 0.594600
vn 0.568400 -0.568600 -0.594600
vn 0.568400 -0.568600 -0.594600
vn 0.568400 -0.568600 -0.594600
vn 0.568400 0.568600 -0.594600
vn 0.568400 0.568600 -0.594600
vn 0.568400 0.568600 -0.594600
vn 0.568400 0.568600 -0.594600
vn 0.568400 0.568600 -0.594600
vn 0.568400 0.568600 -0.594600
vn 0.568400 -0.568600 -0.594600
vn 0.568400 -0.568600 -0.594600
vn 0.568400 -0.568600 -0.594600
vn 0.568500 0.568600 0.594600
vn 0.568500 0.568600 0.594600
vn 0.568500 0.568600 0.594600
vn 0.568500 -0.568600 0.594600
vn 0.568500 -0.568600 0.594600
vn 0.568500 -0.568600 0.594600
vn -0.300100 0.900800 -0.313900
vn -0.300100 0.900800 -0.313900
vn -0.300100 0.900800 -0.313900
vn -0.300100 0.900700 0.313900
vn -0.300100 0.900700 0.313900
vn -0.300100 0.900700 0.313900
vn -0.568500 0.568600 0.594600
vn -0.568500 0.568600 0.594600
vn -0.568500 0.568600 0.594600
vn -0.568400 0.568600 -0.594700
vn -0.568400 0.568600 -0.594700
vn -0.568400 0.568600 -0.594700
vn -0.568400 0.568600 -0.594600
vn -0.568400 0.568600 -0.594600
vn -0.568400 0.568600 -0.594600
vn -0.568500 0.568600 0.594600
vn -0.568500 0.568600 0.594600
vn -0.568500 0.568600 0.594600
vn -0.300100 0.900700 0.313900
vn -0.300100 0.900700 0.313900
vn -0.300100 0.900700 0.313900
vn -0.300100 0.900800 -0.313900
vn -0.300100 0.900800 -0.313900
vn -0.300100 0.900800 -0.313900
vn 0.568500 -0.568600 0.594600
vn 0.568500 -0.568600 0.594600
vn 0.568500 -0.568600 0.594600
vn 0.568400 0.568600 0.594600
vn 0.568400 0.568600 0.594600
vn 0.568400 0.568600 0.594600
vn 0.568400 -0.568600 -0.594600
vn 0.568400 -0.568600 -0.594600
vn 0.568400 -0.568600 -0.594600
vn 0.568400 0.568600 -0.594600
vn 0.568400 0.568600 -0.594600
vn 0.568400 0.568600 -0.594600
vn -0.707000 0.707200 0.000000
vn -0.707000 0.707200 0.000000
vn -0.707000 0.707200 0.000000
vn -0.707000 0.707200 0.000000
vn 0.707000 0.707200 0.000000
vn 0.707000 0.707200 0.000000
vn 0.707000 0.707200 0.000000
vn 0.707000 0.707200 0.000000
vn 0.707000 -0.707200 0.000000
vn 0.707000 -0.707200 0.000000
vn 0.707000 -0.707200 0.000000
vn 0.707000 -0.707200 0.000000
vn -0.707000 -0.707200 0.000000
vn -0.707000 -0.707200 0.000000
vn -0.707000 -0.707200 0.000000
vn -0.707000 -0.707200 0.000000
vn 0.000000 0.691100 0.722700
vn 0.000000 0.691100 0.722700
vn 0.000000 0.691100 0.722700
vn 0.000000 0.691100 0.722700
vn 0.000000 0.691100 -0.722700
vn 0.000000 0.691100 -0.722700
vn 0.000000 0.691100 -0.722700
vn 0.000000 0.691100 -0.722700
vn 0.000000 -0.691100 -0.722700
vn 0.000000 -0.691100 -0.722700
vn 0.000000 -0.691100 -0.722700
vn 0.000000 -0.691100 -0.722700
vn 0.000000 -0.691100 0.722700
vn 0.000000 -0.691100 0.722700
vn 0.000000 -0.691100 0.722700
vn 0.000000 -0.691100 0.722700
vn -0.691000 0.000000 0.722800
vn -0.691000 0.000000 0.722800
vn -0.691000 0.000000 0.722800
vn -0.691000 0.000000 0.722800
vn 0.691000 0.000000 0.722900
vn 0.691000 0.000000 0.722900
vn 0.691000 0.000000 0.722900
vn 0.691000 0.000000 0.722900
vn -0.691000 0.000000 -0.722800
vn -0.691000 0.000000 -0.722800
vn -0.691000 0.000000 -0.722800
vn -0.691000 0.000000 -0.722800
vn 0.691000 0.000000 -0.722800
vn 0.691000 0.000000 -0.722800
vn 0.691000 0.000000 -0.722800
vn 0.691000 0.000000 -0.722800
vn -0.707000 -0.707200 0.000000
vn -0.707000 -0.707200 0.000000
vn -0.707000 -0.707200 0.000000
vn -0.707000 -0.707200 0.000000
vn 0.707000 -0.707200 0.000000
vn 0.707000 -0.707200 0.000000
vn 0.707000 -0.707200 0.000000
vn 0.707000 -0.707200 0.000000
vn 0.707000 0.707200 0.000000
vn 0.707000 0.707200 0.000000
vn 0.707000 0.707200 0.000000
vn 0.707000 0.707200 0.000000
vn -0.707000 0.707200 0.000000
vn -0.707000 0.707200 0.000000
vn -0.707000 0.707200 0.000000
vn -0.707000 0.707200 0.000000
vn 0.000000 -0.691100 0.722700
vn 0.000000 -0.691100 0.722700
vn 0.000000 -0.691100 0.722700
vn 0.000000 -0.691100 0.722700
vn 0.000000 -0.691100 -0.722700
vn 0.000000 -0.691100 -0.722700
vn 0.000000 -0.691100 -0.722700
vn 0.000000 -0.691100 -0.722700
vn 0.000000 0.691100 -0.722700
vn 0.000000 0.691100 -0.722700
vn 0.000000 0.691100 -0.722700
vn 0.000000 0.691100 -0.722700
vn 0.000000 0.691200 0.722700
vn 0.000000 0.691200 0.722700
vn 0.000000 0.691200 0.722700
vn 0.000000 0.691200 0.722700
vn 0.691000 0.000000 -0.722800
vn 0.691000 0.000000 -0.722800
vn 0.691000 0.000000 -0.722800
vn 0.691000 0.000000 -0.722800
vn -0.691000 0.000000 -0.722800
vn -0.691000 0.000000 -0.722800
vn -0.691000 0.000000 -0.722800
vn -0.691000 0.000000 -0.722800
vn 0.691000 0.000000 0.722800
vn 0.691000 0.000000 0.722800
vn 0.691000 0.000000 0.722800
vn 0.691000 0.000000 0.722800
vn -0.691000 0.000000 0.722800
vn -0.691000 0.000000 0.722800
vn -0.691000 0.000000 0.722800
vn -0.691000 0.000000 0.722800
vn 0.000000 -0.691100 -0.722700
vn 0.000000 -0.691100 -0.722700
vn 0.000000 -0.691100 -0.722700
vn 0.000000 -0.691100 -0.722700
vn 0.000000 0.691100 -0.722700
vn 0.000000 0.691100 -0.722700
vn 0.000000 0.691100 -0.722700
vn 0.000000 0.691100 -0.722700
vn 0.000000 0.691200 0.722700
vn 0.000000 0.691200 0.722700
vn 0.000000 0.691200 0.722700
vn 0.000000 0.691200 0.722700
vn 0.000000 -0.691200 0.722700
vn 0.000000 -0.691200 0.722700
vn 0.000000 -0.691200 0.722700
vn 0.000000 -0.691200 0.722700
vn -0.707000 0.707200 0.000000
vn -0.707000 0.707200 0.000000
vn -0.707000 0.707200 0.000000
vn -0.707000 0.707200 0.000000
vn -0.707000 -0.707200 0.000000
vn -0.707000 -0.707200 0.000000
vn -0.707000 -0.707200 0.000000
vn -0.707000 -0.707200 0.000000
vn 0.707000 -0.707200 0.000000
vn 0.707000 -0.707200 0.000000
vn 0.707000 -0.707200 0.000000
vn 0.707000 -0.707200 0.000000
vn 0.707000 0.707200 0.000000
vn 0.707000 0.707200 0.000000
vn 0.707000 0.707200 0.000000
vn 0.707000 0.707200 0.000000
vn -0.691000 0.000000 -0.722900
vn -0.691000 0.000000 -0.722900
vn -0.691000 0.000000 -0.722900
vn -0.691000 0.000000 -0.722900
vn 0.691000 0.000000 -0.722900
vn 0.691000 0.000000 -0.722900
vn 0.691000 0.000000 -0.722900
vn 0.691000 0.000000 -0.722900
vn 0.691000 0.000000 0.722800
vn 0.691000 0.000000 0.722800
vn 0.691000 0.000000 0.722800
vn 0.691000 0.000000 0.722800
vn -0.691000 0.000000 0.722800
vn -0.691000 0.000000 0.722800
vn -0.691000 0.000000 0.722800
vn -0.691000 0.000000 0.722800
vn -0.691000 0.000000 0.722900
vn -0.691000 0.000000 0.722900
vn -0.691000 0.000000 0.722900
vn -0.691000 0.000000 0.722900
vn 0.691000 0.000000 0.722800
vn 0.691000 0.000000 0.722800
vn 0.691000 0.000000 0.722800
vn 0.691000 0.000000 0.722800
vn 0.691000 0.000000 -0.722800
vn 0.691000 0.000000 -0.722800
vn 0.691000 0.000000 -0.722800
vn 0.691000 0.000000 -0.722800
vn -0.691000 0.000000 -0.722800
vn -0.691000 0.000000 -0.722800
vn -0.691000 0.000000 -0.722800
vn -0.691000 0.000000 -0.722800
vn 0.000000 -0.691100 0.722700
vn 0.000000 -0.691100 0.722700
vn 0.000000 -0.691100 0.722700
vn 0.000000 -0.691100 0.722700
vn 0.000000 0.691100 0.722700
vn 0.000000 0.691100 0.722700
vn 0.000000 0.691100 0.722700
vn 0.000000 0.691100 0.722700
vn 0.000000 0.691100 -0.722700
vn 0.000000 0.691100 -0.722700
vn 0.000000 0.691100 -0.722700
vn 0.000000 0.691100 -0.722700
vn 0.000000 -0.691100 -0.722700
vn 0.000000 -0.691100 -0.722700
vn 0.000000 -0.691100 -0.722700
vn 0.000000 -0.691100 -0.722700
vn 0.707000 0.707200 0.000000
vn 0.707000 0.707200 0.000000
vn 0.707000 0.707200 0.000000
vn 0.707000 0.707200 0.000000
vn 0.707000 -0.707200 0.000000
vn 0.707000 -0.707200 0.000000
vn 0.707000 -0.707200 0.000000
vn 0.707000 -0.707200 0.000000
vn -0.707000 -0.707200 0.000000
vn -0.707000 -0.707200 0.000000
vn -0.707000 -0.707200 0.000000
vn -0.707000 -0.707200 0.000000
vn -0.707000 0.707200 0.000000
vn -0.707000 0.707200 0.000000
vn -0.707000 0.707200 0.000000
vn -0.707000 0.707200 0.000000
vn 0.000000 0.691100 0.722700
vn 0.000000 0.691100 0.722700
vn 0.000000 0.691100 0.722700
vn 0.000000 0.691100 0.722700
vn 0.000000 -0.691100 0.722700
vn 0.000000 -0.691100 0.722700
vn 0.000000 -0.691100 0.722700
vn 0.000000 -0.691100 0.722700
vn 0.000000 -0.691100 -0.722700
vn 0.000000 -0.691100 -0.722700
vn 0.000000 -0.691100 -0.722700
vn 0.000000 -0.691100 -0.722700
vn 0.000000 0.691100 -0.722700
vn 0.000000 0.691100 -0.722700
vn 0.000000 0.691100 -0.722700
vn 0.000000 0.691100 -0.722700
vn 0.000000 0.691100 0.722700
vn 0.000000 0.691100 0.722700
vn 0.000000 0.691100 0.722700
vn 0.000000 0.691100 0.722700
vn 0.000000 0.691100 -0.722700
vn 0.000000 0.691100 -0.722700
vn 0.000000 0.691100 -0.722700
vn 0.000000 0.691100 -0.722700
vn 0.000000 0.691200 -0.722700
vn 0.000000 0.691200 -0.722700
vn 0.000000 0.691200 -0.722700
vn 0.000000 0.691200 -0.722700
vn 0.000000 0.691100 0.722700
vn 0.000000 0.691100 0.722700
vn 0.000000 0.691100 0.722700
vn 0.000000 0.691100 0.722700
vn 0.691000 0.000000 -0.722900
vn 0.691000 0.000000 -0.722900
vn 0.691000 0.000000 -0.722900
vn 0.691000 0.000000 -0.722900
vn 0.691000 0.000000 0.722800
vn 0.691000 0.000000 0.722800
vn 0.691000 0.000000 0.722800
vn 0.691000 0.000000 0.722800
vn 0.707000 -0.707200 0.000000
vn 0.707000 -0.707200 0.000000
vn 0.707000 -0.707200 0.000000
vn 0.707000 -0.707200 0.000000
vn 0.707000 0.707200 0.000000
vn 0.707000 0.707200 0.000000
vn 0.707000 0.707200 0.000000
vn 0.707000 0.707200 0.000000
vn -0.707000 0.707200 0.000000
vn -0.707000 0.707200 0.000000
vn -0.707000 0.707200 0.000000
vn -0.707000 0.707200 0.000000
vn -0.707000 0.707200 0.000000
vn -0.707000 0.707200 0.000000
vn -0.707000 0.707200 0.000000
vn -0.707000 0.707200 0.000000
vn -0.691000 0.000000 0.722800
vn -0.691000 0.000000 0.722800
vn -0.691000 0.000000 0.722800
vn -0.691000 0.000000 0.722800
vn -0.691000 0.000000 -0.722800
vn -0.691000 0.000000 -0.722800
vn -0.691000 0.000000 -0.722800
vn -0.691000 0.000000 -0.722800
vn 0.691000 0.000000 0.722800
vn 0.691000 0.000000 0.722800
vn 0.691000 0.000000 0.722800
vn 0.691000 0.000000 0.722800
vn 0.691000 0.000000 -0.722900
vn 0.691000 0.000000 -0.722900
vn 0.691000 0.000000 -0.722900
vn 0.691000 0.000000 -0.722900
vn 0.000000 0.691100 0.722700
vn 0.000000 0.691100 0.722700
vn 0.000000 0.691100 0.722700
vn 0.000000 0.691100 0.722700
vn 0.000000 0.691200 -0.722700
vn 0.000000 0.691200 -0.722700
vn 0.000000 0.691200 -0.722700
vn 0.000000 0.691200 -0.722700
vn 0.000000 0.691100 -0.722700
vn 0.000000 0.691100 -0.722700
vn 0.000000 0.691100 -0.722700
vn 0.000000 0.691100 -0.722700
vn 0.000000 0.691100 0.722700
vn 0.000000 0.691100 0.722700
vn 0.000000 0.691100 0.722700
vn 0.000000 0.691100 0.722700
vn 0.000000 0.691100 -0.722700
vn 0.000000 0.691100 -0.722700
vn 0.000000 0.691100 -0.722700
vn 0.000000 0.691100 -0.722700
vn 0.000000 -0.691100 -0.722700
vn 0.000000 -0.691100 -0.722700
vn 0.000000 -0.691100 -0.722700
vn 0.000000 -0.691100 -0.722700
vn 0.000000 -0.691100 0.722700
vn 0.000000 -0.691100 0.722700
vn 0.000000 -0.691100 0.722700
vn 0.000000 -0.691100 0.722700
vn 0.000000 0.691100 0.722700
vn 0.000000 0.691100 0.722700
vn 0.000000 0.691100 0.722700
vn 0.000000 0.691100 0.722700
vn -0.707000 0.707200 0.000000
vn -0.707000 0.707200 0.000000
vn -0.707000 0.707200 0.000000
vn -0.707000 0.707200 0.000000
vn -0.707000 0.707200 0.000000
vn -0.707000 0.707200 0.000000
vn -0.707000 0.707200 0.000000
vn -0.707000 0.707200 0.000000
vn 0.707000 0.707200 0.000000
vn 0.707000 0.707200 0.000000
vn 0.707000 0.707200 0.000000
vn 0.707000 0.707200 0.000000
vn 0.707000 -0.707200 0.000000
vn 0.707000 -0.707200 0.000000
vn 0.707000 -0.707200 0.000000
vn 0.707000 -0.707200 0.000000
vn -0.691000 0.000000 -0.722800
vn -0.691000 0.000000 -0.722800
vn -0.691000 0.000000 -0.722800
vn -0.691000 0.000000 -0.722800
vn -0.691000 0.000000 0.722800
vn -0.691000 0.000000 0.722800
vn -0.691000 0.000000 0.722800
vn -0.691000 0.000000 0.722800
vn 0.691000 0.000000 -0.722900
vn 0.691000 0.000000 -0.722900
vn 0.691000 0.000000 -0.722900
vn 0.691000 0.000000 -0.722900
vn 0.691000 0.000000 0.722800
vn 0.691000 0.000000 0.722800
vn 0.691000 0.000000 0.722800
vn 0.691000 0.000000 0.722800
vn 0.000000 0.691100 0.722700
vn 0.000000 0.691100 0.722700
vn 0.000000 0.691100 0.722700
vn 0.000000 0.691100 0.722700
vn 0.000000 0.691100 -0.722700
vn 0.000000 0.691100 -0.722700
vn 0.000000 0.691100 -0.722700
vn 0.000000 0.691100 -0.722700
vn 0.000000 0.691200 -0.722700
vn 0.000000 0.691200 -0.722700
vn 0.000000 0.691200 -0.722700
vn 0.000000 0.691200 -0.722700
vn 0.000000 0.691100 0.722700
vn 0.000000 0.691100 0.722700
vn 0.000000 0.691100 0.722700
vn 0.000000 0.691100 0.722700
vn 0.000000 -0.691100 -0.722700
vn 0.000000 -0.691100 -0.722700
vn 0.000000 -0.691100 -0.722700
vn 0.000000 -0.691100 -0.722700
vn 0.000000 -0.691100 0.722700
vn 0.000000 -0.691100 0.722700
vn 0.000000 -0.691100 0.722700
vn 0.000000 -0.691100 0.722700
vn 0.707000 0.707200 0.000000
vn 0.707000 0.707200 0.000000
vn 0.707000 0.707200 0.000000
vn 0.707000 0.707200 0.000000
vn -0.707000 0.707200 0.000000
vn -0.707000 0.707200 0.000000
vn -0.707000 0.707200 0.000000
vn -0.707000 0.707200 0.000000
vn -0.707000 0.707200 0.000000
vn -0.707000 0.707200 0.000000
vn -0.707000 0.707200 0.000000
vn -0.707000 0.707200 0.000000
vn 0.707000 -0.707200 0.000000
vn 0.707000 -0.707200 0.000000
vn 0.707000 -0.707200 0.000000
vn 0.707000 -0.707200 0.000000
vn 0.000000 0.691100 0.722700
vn 0.000000 0.691100 0.722700
vn 0.000000 0.691100 0.722700
vn 0.000000 0.691100 0.722700
vn 0.000000 0.691100 -0.722700
vn 0.000000 0.691100 -0.722700
vn 0.000000 0.691100 -0.722700
vn 0.000000 0.691100 -0.722700
vn -0.691000 0.000000 0.722800
vn -0.691000 0.000000 0.722800
vn -0.691000 0.000000 0.722800
vn -0.691000 0.000000 0.722800
vn -0.691000 0.000000 -0.722800
vn -0.691000 0.000000 -0.722800
vn -0.691000 0.000000 -0.722800
vn -0.691000 0.000000 -0.722800
vn 0.691000 0.000000 0.722800
vn 0.691000 0.000000 0.722800
vn 0.691000 0.000000 0.722800
vn 0.691000 0.000000 0.722800
vn 0.691000 0.000000 -0.722900
vn 0.691000 0.000000 -0.722900
vn 0.691000 0.000000 -0.722900
vn 0.691000 0.000000 -0.722900
vn -0.691000 0.000000 -0.722800
vn -0.691000 0.000000 -0.722800
vn -0.691000 0.000000 -0.722800
vn -0.691000 0.000000 -0.722800
vn -0.691000 0.000000 0.722800
vn -0.691000 0.000000 0.722800
vn -0.691000 0.000000 0.722800
vn -0.691000 0.000000 0.722800
vn 0.000000 0.691100 -0.722700
vn 0.000000 0.691100 -0.722700
vn 0.000000 0.691100 -0.722700
vn 0.000000 0.691100 -0.722700
vn 0.000000 -0.691100 -0.722700
vn 0.000000 -0.691100 -0.722700
vn 0.000000 -0.691100 -0.722700
vn 0.000000 -0.691100 -0.722700
vn 0.000000 -0.691100 0.722700
vn 0.000000 -0.691100 0.722700
vn 0.000000 -0.691100 0.722700
vn 0.000000 -0.691100 0.722700
vn 0.000000 0.691100 0.722700
vn 0.000000 0.691100 0.722700
vn 0.000000 0.691100 0.722700
vn 0.000000 0.691100 0.722700
vn 0.000000 0.691100 0.722700
vn 0.000000 0.691100 0.722700
vn 0.000000 0.691100 0.722700
vn 0.000000 0.691100 0.722700
vn 0.000000 0.691200 -0.722700
vn 0.000000 0.691200 -0.722700
vn 0.000000 0.691200 -0.722700
vn 0.000000 0.691200 -0.722700
vn 0.000000 0.691100 -0.722700
vn 0.000000 0.691100 -0.722700
vn 0.000000 0.691100 -0.722700
vn 0.000000 0.691100 -0.722700
vn 0.000000 0.691100 0.722700
vn 0.000000 0.691100 0.722700
vn 0.000000 0.691100 0.722700
vn 0.000000 0.691100 0.722700
vn 0.707000 0.707200 0.000000
vn 0.707000 0.707200 0.000000
vn 0.707000 0.707200 0.000000
vn 0.707000 0.707200 0.000000
vn -0.707000 0.707200 0.000000
vn -0.707000 0.707200 0.000000
vn -0.707000 0.707200 0.000000
vn -0.707000 0.707200 0.000000
vn -0.707000 0.707200 0.000000
vn -0.707000 0.707200 0.000000
vn -0.707000 0.707200 0.000000
vn -0.707000 0.707200 0.000000
vn 0.707000 -0.707200 0.000000
vn 0.707000 -0.707200 0.000000
vn 0.707000 -0.707200 0.000000
vn 0.707000 -0.707200 0.000000
vn -0.707000 0.707200 0.000000
vn -0.707000 0.707200 0.000000
vn -0.707000 0.707200 0.000000
vn -0.707000 0.707200 0.000000
vn -0.707000 -0.707200 0.000000
vn -0.707000 -0.707200 0.000000
vn -0.707000 -0.707200 0.000000
vn -0.707000 -0.707200 0.000000
vn 0.707000 -0.707200 0.000000
vn 0.707000 -0.707200 0.000000
vn 0.707000 -0.707200 0.000000
vn 0.707000 -0.707200 0.000000
vn 0.707000 0.707200 0.000000
vn 0.707000 0.707200 0.000000
vn 0.707000 0.707200 0.000000
vn 0.707000 0.707200 0.000000
vn -0.691000 0.000000 0.722800
vn -0.691000 0.000000 0.722800
vn -0.691000 0.000000 0.722800
vn -0.691000 0.000000 0.722800
vn -0.691000 0.000000 -0.722800
vn -0.691000 0.000000 -0.722800
vn -0.691000 0.000000 -0.722800
vn -0.691000 0.000000 -0.722800
vn 0.691000 0.000000 -0.722800
vn 0.691000 0.000000 -0.722800
vn 0.691000 0.000000 -0.722800
vn 0.691000 0.000000 -0.722800
vn 0.691000 0.000000 0.722800
vn 0.691000 0.000000 0.722800
vn 0.691000 0.000000 0.722800
vn 0.691000 0.000000 0.722800
vn 0.000000 -0.691100 -0.722700
vn 0.000000 -0.691100 -0.722700
vn 0.000000 -0.691100 -0.722700
vn 0.000000 -0.691100 -0.722700
vn 0.000000 -0.691200 0.722700
vn 0.000000 -0.691200 0.722700
vn 0.000000 -0.691200 0.722700
vn 0.000000 -0.691200 0.722700
vn 0.000000 0.691200 0.722700
vn 0.000000 0.691200 0.722700
vn 0.000000 0.691200 0.722700
vn 0.000000 0.691200 0.722700
vn 0.000000 0.691100 -0.722700
vn 0.000000 0.691100 -0.722700
vn 0.000000 0.691100 -0.722700
vn 0.000000 0.691100 -0.722700
vt 1.907600 0.541500
vt 1.907600 0.371300
vt 1.647000 0.371300
vt 1.647000 0.541500
vt 2.946800 0.289600
vt 2.946800 0.890700
vt 2.680100 0.890700
vt 2.680100 0.289600
vt 2.671500 0.891900
vt 0.656400 0.891900
vt 0.656400 0.728200
vt 2.671500 0.728200
vt 2.739200 1.551600
vt 2.472600 1.551600
vt 2.472600 0.950500
vt 2.739200 0.950500
vt 2.998700 1.539700
vt 3.240400 1.539700
vt 3.240400 0.950500
vt 2.998700 0.950500
vt 0.647700 1.376700
vt 0.647700 0.728100
vt -0.015900 0.728100
vt -0.015900 1.376700
vt -1.881800 1.379200
vt -3.057400 1.379200
vt -3.057400 1.998800
vt -1.881800 1.998800
vt 4.506300 0.831500
vt 4.464900 0.831500
vt 4.464900 1.175100
vt 4.506300 1.175100
vt -3.057000 0.103400
vt -3.057000 -0.090600
vt -3.015700 -0.090600
vt -3.015700 0.103400
vt 4.451800 1.175100
vt 4.410400 1.175100
vt 4.410400 0.831500
vt 4.451800 0.831500
vt -2.170000 0.612800
vt -2.170000 0.276800
vt -2.819000 0.276800
vt -2.819000 0.612800
vt -2.915900 -0.208000
vt -2.915900 -0.014000
vt -2.874600 -0.014000
vt -2.874600 -0.208000
vt 2.075300 0.893200
vt 1.814600 0.893200
vt 1.814600 1.063400
vt 2.075300 1.063400
vt 2.422000 0.702900
vt 2.185700 0.702900
vt 2.185700 0.542800
vt 2.422000 0.542800
vt -3.003000 0.568600
vt -3.003000 0.580500
vt -3.651900 0.580500
vt -3.651900 0.568600
vt 1.377600 0.541500
vt 1.377600 0.371300
vt 1.638300 0.371300
vt 1.638300 0.541500
vt -0.796800 -0.506100
vt -0.796800 -0.342400
vt -2.811800 -0.342400
vt -2.811800 -0.506100
vt 2.976400 0.182600
vt 2.709800 0.182600
vt 2.709800 -0.418400
vt 2.976400 -0.418400
vt 1.226800 -0.167000
vt -0.788300 -0.167000
vt -0.788300 -0.330700
vt 1.226800 -0.330700
vt -0.775400 0.539500
vt -1.439000 0.539500
vt -1.439000 -0.109200
vt -0.775400 -0.109200
vt -0.688600 1.553400
vt -0.688600 1.379300
vt 1.367200 1.379300
vt 1.367200 1.553400
vt 1.355300 1.553400
vt 1.355300 1.387000
vt -0.676700 1.387000
vt -0.676700 1.553400
vt 1.925100 -0.157000
vt 1.925100 -0.165700
vt 1.276100 -0.165700
vt 1.276100 -0.157000
vt -2.543100 1.744800
vt -2.543100 1.096100
vt -2.501500 1.096100
vt -2.501500 1.744800
vt 1.471700 -0.359200
vt 1.471700 -0.519300
vt 1.235400 -0.519300
vt 1.235400 -0.359200
vt 2.700900 -0.418400
vt 2.700900 0.182600
vt 2.434300 0.182600
vt 2.434300 -0.418400
vt -0.788300 0.183900
vt 1.267500 0.183900
vt 1.267500 0.009700
vt -0.788300 0.009700
vt 0.496000 1.771400
vt 1.645400 1.771400
vt 1.645400 1.782400
vt 0.496000 1.782400
vt -0.969900 0.264800
vt -0.969900 0.600900
vt -1.618900 0.600900
vt -1.618900 0.264800
vt 1.377600 0.719600
vt 1.377600 0.549300
vt 1.638300 0.549300
vt 1.638300 0.719600
vt 4.451800 0.828900
vt 4.451800 0.485200
vt 4.410400 0.485200
vt 4.410400 0.828900
vt -0.766500 -0.109200
vt -0.766500 0.539500
vt -0.102900 0.539500
vt -0.102900 -0.109200
vt 1.645400 1.797000
vt 1.645400 1.785900
vt 0.496000 1.785900
vt 0.496000 1.797000
vt 1.367200 1.825900
vt 1.367200 2.000000
vt 1.355300 2.000000
vt 1.355300 1.833700
vt -0.676700 1.833700
vt -0.676700 2.000000
vt -0.688600 2.000000
vt -0.688600 1.825900
vt 2.384800 -0.359200
vt 2.384800 -0.519300
vt 2.148500 -0.519300
vt 2.148500 -0.359200
vt 1.925100 -0.154400
vt 1.925100 -0.145700
vt 1.276100 -0.145700
vt 1.276100 -0.154400
vt 2.955600 0.289600
vt 2.955600 0.878700
vt 3.197400 0.878700
vt 3.197400 0.289600
vt 1.558300 0.618600
vt 1.527800 0.618600
vt 1.527800 1.267300
vt 1.558300 1.267300
vt 2.320300 1.347100
vt 2.084000 1.347100
vt 2.084000 1.187000
vt 2.320300 1.187000
vt 1.430500 1.741400
vt 1.430500 1.730100
vt -0.688600 1.730100
vt -0.688600 1.741400
vt 1.751800 0.618600
vt 1.751800 1.267300
vt 1.721300 1.267300
vt 1.721300 0.618600
vt -2.451100 1.096100
vt -2.492600 1.096100
vt -2.492600 1.744800
vt -2.451100 1.744800
vt 2.320300 1.185700
vt 2.320300 1.025600
vt 2.084000 1.025600
vt 2.084000 1.185700
vt -0.788300 -0.332000
vt -0.788300 -0.495700
vt 1.226800 -0.495700
vt 1.226800 -0.332000
vt 1.814600 1.357200
vt 2.075300 1.357200
vt 2.075300 1.187000
vt 1.814600 1.187000
vt 4.556100 0.831500
vt 4.556100 1.175100
vt 4.514800 1.175100
vt 4.514800 0.831500
vt -3.003000 0.554100
vt -3.651900 0.554100
vt -3.651900 0.566000
vt -3.003000 0.566000
vt 3.114900 0.446000
vt 3.114900 0.782000
vt 2.465900 0.782000
vt 2.465900 0.446000
vt -0.808600 -0.333300
vt -2.840700 -0.333300
vt -2.840700 -0.167000
vt -2.852500 -0.167000
vt -2.852500 -0.341100
vt -0.796800 -0.341100
vt -0.796800 -0.167000
vt -0.808600 -0.167000
vt 2.422000 0.531400
vt 2.185700 0.531400
vt 2.185700 0.371300
vt 2.422000 0.371300
vt -0.688600 1.554700
vt -0.688600 1.728800
vt 1.367200 1.728800
vt 1.367200 1.554700
vt -3.007200 0.103400
vt -3.007200 -0.090600
vt -2.965800 -0.090600
vt -2.965800 0.103400
vt 3.227000 -0.406500
vt 2.985300 -0.406500
vt 2.985300 0.182600
vt 3.227000 0.182600
vt -2.840700 -0.157900
vt -2.840700 0.008400
vt -2.852600 0.008400
vt -2.852600 -0.165700
vt -0.796700 -0.165700
vt -0.796700 0.008400
vt -0.808600 0.008400
vt -0.808600 -0.157900
vt -0.024800 0.728100
vt -0.024800 1.376700
vt -0.688400 1.376700
vt -0.688400 0.728100
vt -2.820400 -0.342400
vt -2.820400 -0.502500
vt -3.056700 -0.502500
vt -3.056700 -0.342400
vt 1.267500 0.008400
vt 1.267500 -0.165700
vt -0.788300 -0.165700
vt -0.788300 0.008400
vt -0.796800 0.183900
vt -0.796800 0.009700
vt -2.852500 0.009700
vt -2.852500 0.183900
vt 2.989800 0.950500
vt 2.748100 0.950500
vt 2.748100 1.539700
vt 2.989800 1.539700
vt 1.907600 0.542800
vt 1.907600 0.713100
vt 1.647000 0.713100
vt 1.647000 0.542800
vt -2.915900 -0.011400
vt -2.915900 0.182600
vt -2.874600 0.182600
vt -2.874600 -0.011400
vt 2.177000 0.541500
vt 2.177000 0.371300
vt 1.916300 0.371300
vt 1.916300 0.541500
vt 1.716700 -0.359200
vt 1.480400 -0.359200
vt 1.480400 -0.519300
vt 1.716700 -0.519300
vt 2.109800 0.446000
vt 1.460800 0.446000
vt 1.460800 0.782000
vt 2.109800 0.782000
vt -1.872900 1.379200
vt -0.697300 1.379200
vt -0.697300 1.998800
vt -1.872900 1.998800
vt -0.688600 1.823300
vt -0.688600 1.812000
vt 1.430500 1.812000
vt 1.430500 1.823300
vt 1.916300 0.713100
vt 1.916300 0.542800
vt 2.177000 0.542800
vt 2.177000 0.713100
vt -2.492600 1.744800
vt -2.497100 1.744800
vt -2.492600 1.746000
vt -2.543100 1.744800
vt -2.543100 1.746000
vt -2.547500 1.744800
vt -2.543100 1.096100
vt -2.547500 1.096100
vt -2.543100 1.094800
vt -2.492600 1.096100
vt -2.492600 1.094800
vt -2.497100 1.096100
vt -2.451100 1.096100
vt -2.446600 1.096100
vt -2.451100 1.094800
vt -2.501500 1.096100
vt -2.501500 1.094800
vt -2.497100 1.096100
vt -2.501500 1.744800
vt -2.497100 1.744800
vt -2.501500 1.746000
vt -2.451100 1.744800
vt -2.451100 1.746000
vt -2.446600 1.744800
vt 1.527800 0.618600
vt 1.527800 0.617400
vt 1.523400 0.618600
vt 1.721300 0.618600
vt 1.716900 0.618600
vt 1.721300 0.617400
vt 1.721300 1.267300
vt 1.721300 1.268600
vt 1.716900 1.267300
vt 1.527800 1.267300
vt 1.523400 1.267300
vt 1.527800 1.268600
vt 1.558300 1.267300
vt 1.558300 1.268600
vt 1.562800 1.267300
vt 1.751800 1.267300
vt 1.756300 1.267300
vt 1.751800 1.268600
vt 1.751800 0.618600
vt 1.751800 0.617400
vt 1.756300 0.618600
vt 1.558300 0.618600
vt 1.562800 0.618600
vt 1.558300 0.617400
vt 4.451800 0.828900
vt 4.451800 0.830200
vt 4.456000 0.828900
vt 4.556100 1.175100
vt 4.560400 1.175100
vt 4.556100 1.176400
vt 4.451800 0.485200
vt 4.456000 0.485200
vt 4.451800 0.483900
vt 4.556100 0.831500
vt 4.556100 0.830200
vt 4.560400 0.831500
vt 4.514800 0.831500
vt 4.510500 0.831500
vt 4.514800 0.830200
vt 4.410400 0.485200
vt 4.410400 0.483900
vt 4.406200 0.485200
vt 4.514800 1.175100
vt 4.514800 1.176400
vt 4.510500 1.175100
vt 4.410400 0.828900
vt 4.406200 0.828900
vt 4.410400 0.830200
vt -2.170000 0.612800
vt -2.170000 0.614000
vt -2.165700 0.612800
vt -2.819000 0.612800
vt -2.823300 0.612800
vt -2.819000 0.614000
vt -2.170000 0.276800
vt -2.165700 0.276800
vt -2.170000 0.275500
vt -2.819000 0.276800
vt -2.819000 0.275500
vt -2.823300 0.276800
vt -1.618900 0.264800
vt -1.623200 0.264800
vt -1.618900 0.263600
vt -0.969900 0.264800
vt -0.969900 0.263600
vt -0.965600 0.264800
vt -1.618900 0.600900
vt -1.618900 0.602100
vt -1.623200 0.600900
vt -0.969900 0.600900
vt -0.965600 0.600900
vt -0.969900 0.602100
vt -0.688600 1.823300
vt -0.688600 1.824600
vt -0.692900 1.823300
vt -0.688600 1.741400
vt -0.692900 1.741400
vt -0.688600 1.742700
vt 1.430500 1.823300
vt 1.434800 1.823300
vt 1.430500 1.824600
vt 1.430500 1.741400
vt 1.430500 1.742700
vt 1.434800 1.741400
vt 1.430500 1.730100
vt 1.434800 1.730100
vt 1.430500 1.728800
vt 1.430500 1.812000
vt 1.430500 1.810700
vt 1.434800 1.812000
vt -0.688600 1.730100
vt -0.688600 1.728800
vt -0.692900 1.730100
vt -0.688600 1.812000
vt -0.692900 1.812000
vt -0.688600 1.810700
vt -0.796800 -0.341100
vt -0.796800 -0.342400
vt -0.792500 -0.341100
vt 1.267500 -0.165700
vt 1.271700 -0.165700
vt 1.267500 -0.167000
vt -2.852500 -0.341100
vt -2.856800 -0.341100
vt -2.852500 -0.342400
vt -0.788300 -0.165700
vt -0.788300 -0.167000
vt -0.792500 -0.165700
vt -2.820400 -0.502500
vt -2.816100 -0.503800
vt -2.820400 -0.503800
vt 2.422000 0.542800
vt 2.422000 0.541500
vt 2.426400 0.541500
vt 2.185700 0.542800
vt 2.181300 0.542800
vt 2.185700 0.541500
vt -3.056700 -0.502500
vt -3.056700 -0.503800
vt -3.061100 -0.502500
vt 2.148500 -0.519300
vt 2.148500 -0.520600
vt 2.144100 -0.519300
vt 2.185700 0.371300
vt 2.181300 0.371300
vt 2.185700 0.370000
vt 2.422000 0.371300
vt 2.422000 0.370000
vt 2.426400 0.370000
vt 2.384800 -0.519300
vt 2.389100 -0.520600
vt 2.384800 -0.520600
vt 2.434300 0.182600
vt 2.434300 0.183900
vt 2.429900 0.182600
vt 2.700900 0.182600
vt 2.705400 0.182600
vt 2.700900 0.183900
vt 2.434300 -0.418400
vt 2.429900 -0.418400
vt 2.434300 -0.419700
vt 2.700900 -0.418400
vt 2.700900 -0.419700
vt 2.705400 -0.418400
vt 2.177000 0.371300
vt 2.181300 0.371300
vt 2.177000 0.370000
vt 2.472600 0.950500
vt 2.468100 0.950500
vt 2.472600 0.949300
vt 1.907600 0.542800
vt 1.907600 0.541500
vt 1.912000 0.542800
vt 2.472600 1.551600
vt 2.472600 1.552900
vt 2.468100 1.551600
vt 2.320300 1.025600
vt 2.324700 1.024300
vt 2.320300 1.024300
vt 2.320300 1.187000
vt 2.320300 1.185700
vt 2.324700 1.185700
vt 2.084000 1.187000
vt 2.079700 1.187000
vt 2.084000 1.185700
vt 2.084000 1.025600
vt 2.084000 1.024300
vt 2.079700 1.025600
vt 2.998700 1.539700
vt 2.994300 1.539700
vt 2.998700 1.540900
vt 2.998700 0.950500
vt 2.998700 0.949300
vt 2.994300 0.950500
vt 3.240400 0.950500
vt 3.244900 0.949300
vt 3.240400 0.949300
vt 3.240400 1.539700
vt 3.240400 1.540900
vt 3.244900 1.540900
vt 2.709800 0.182600
vt 2.709800 0.183900
vt 2.705400 0.182600
vt 2.976400 0.182600
vt 2.980900 0.182600
vt 2.976400 0.183900
vt 2.709800 -0.418400
vt 2.705400 -0.418400
vt 2.709800 -0.419700
vt 2.976400 -0.418400
vt 2.976400 -0.419700
vt 2.980900 -0.418400
vt 1.527800 1.267300
vt 1.527800 0.618600
vt 1.523400 0.618600
vt 1.523400 1.267300
vt -0.688400 0.728100
vt -0.688400 1.376700
vt -0.692900 1.376700
vt -0.692900 0.728100
vt 1.751800 1.267300
vt 1.751800 0.618600
vt 1.756300 0.618600
vt 1.756300 1.267300
vt 0.647700 0.728100
vt 0.647700 1.376700
vt 0.652200 1.376700
vt 0.652200 0.728100
vt -0.688400 1.376700
vt -0.024800 1.376700
vt -0.024800 1.378000
vt -0.688400 1.378000
vt 1.276100 -0.165700
vt 1.925100 -0.165700
vt 1.925100 -0.167000
vt 1.276100 -0.167000
vt -0.015900 0.728100
vt 0.647700 0.728100
vt 0.647700 0.726900
vt -0.015900 0.726900
vt 1.276100 -0.145700
vt 1.925100 -0.145700
vt 1.925100 -0.144500
vt 1.276100 -0.144500
vt 1.925100 -0.145700
vt 1.925100 -0.154400
vt 1.929400 -0.154400
vt 1.929400 -0.145700
vt 1.751800 0.618600
vt 1.721300 0.618600
vt 1.721300 0.617400
vt 1.751800 0.617400
vt 1.558300 1.267300
vt 1.527800 1.267300
vt 1.527800 1.268600
vt 1.558300 1.268600
vt 1.276100 -0.157000
vt 1.276100 -0.165700
vt 1.271700 -0.165700
vt 1.271700 -0.157000
vt -0.766500 0.539500
vt -0.766500 -0.109200
vt -0.771000 -0.109200
vt -0.771000 0.539500
vt -2.543100 1.096100
vt -2.543100 1.744800
vt -2.547500 1.744800
vt -2.547500 1.096100
vt -0.775400 0.539500
vt -0.775400 -0.109200
vt -0.771000 -0.109200
vt -0.771000 0.539500
vt -2.451100 1.096100
vt -2.451100 1.744800
vt -2.446600 1.744800
vt -2.446600 1.096100
vt -0.766500 -0.109200
vt -0.102900 -0.109200
vt -0.102900 -0.110400
vt -0.766500 -0.110400
vt -3.651900 0.554100
vt -3.003000 0.554100
vt -3.003000 0.552800
vt -3.651900 0.552800
vt -1.439000 0.539500
vt -0.775400 0.539500
vt -0.775400 0.540700
vt -1.439000 0.540700
vt -3.651900 0.580500
vt -3.003000 0.580500
vt -3.003000 0.581800
vt -3.651900 0.581800
vt -3.003000 0.554100
vt -3.003000 0.566000
vt -2.998600 0.566000
vt -2.998600 0.554100
vt -2.492600 1.096100
vt -2.451100 1.096100
vt -2.451100 1.094800
vt -2.492600 1.094800
vt -2.543100 1.744800
vt -2.501500 1.744800
vt -2.501500 1.746000
vt -2.543100 1.746000
vt -3.651900 0.568600
vt -3.651900 0.580500
vt -3.656300 0.580500
vt -3.656300 0.568600
vt -2.874600 -0.011400
vt -2.874600 0.182600
vt -2.870300 0.182600
vt -2.870300 -0.011400
vt -2.819000 0.276800
vt -2.170000 0.276800
vt -2.170000 0.275500
vt -2.819000 0.275500
vt -3.057000 -0.090600
vt -3.057000 0.103400
vt -3.061200 0.103400
vt -3.061200 -0.090600
vt -1.618900 0.600900
vt -0.969900 0.600900
vt -0.969900 0.602100
vt -1.618900 0.602100
vt 4.464900 0.831500
vt 4.506300 0.831500
vt 4.506300 0.830200
vt 4.464900 0.830200
vt -2.874600 0.182600
vt -2.915900 0.182600
vt -2.915900 0.183900
vt -2.874600 0.183900
vt 4.410400 1.175100
vt 4.451800 1.175100
vt 4.451800 1.176400
vt 4.410400 1.176400
vt -3.015700 -0.090600
vt -3.057000 -0.090600
vt -3.057000 -0.091900
vt -3.015700 -0.091900
vt -2.170000 0.276800
vt -2.170000 0.612800
vt -2.165700 0.612800
vt -2.165700 0.276800
vt 4.410400 0.831500
vt 4.410400 1.175100
vt 4.406200 1.175100
vt 4.406200 0.831500
vt -1.618900 0.264800
vt -1.618900 0.600900
vt -1.623200 0.600900
vt -1.623200 0.264800
vt 4.506300 0.831500
vt 4.506300 1.175100
vt 4.510500 1.175100
vt 4.510500 0.831500
vt 4.451800 0.485200
vt 4.451800 0.828900
vt 4.456000 0.828900
vt 4.456000 0.485200
vt 2.465900 0.446000
vt 2.465900 0.782000
vt 2.461600 0.782000
vt 2.461600 0.446000
vt 4.514800 0.831500
vt 4.514800 1.175100
vt 4.510500 1.175100
vt 4.510500 0.831500
vt 2.109800 0.446000
vt 2.109800 0.782000
vt 2.114200 0.782000
vt 2.114200 0.446000
vt 2.465900 0.782000
vt 3.114900 0.782000
vt 3.114900 0.783300
vt 2.465900 0.783300
vt -3.007200 -0.090600
vt -3.007200 0.103400
vt -3.011400 0.103400
vt -3.011400 -0.090600
vt 1.460800 0.446000
vt 2.109800 0.446000
vt 2.109800 0.444700
vt 1.460800 0.444700
vt -2.874600 -0.208000
vt -2.874600 -0.014000
vt -2.870300 -0.014000
vt -2.870300 -0.208000
vt -2.965800 -0.090600
vt -3.007200 -0.090600
vt -3.007200 -0.091900
vt -2.965800 -0.091900
vt 4.514800 1.175100
vt 4.556100 1.175100
vt 4.556100 1.176400
vt 4.514800 1.176400
vt -2.874600 -0.014000
vt -2.915900 -0.014000
vt -2.915900 -0.012700
vt -2.874600 -0.012700
vt 4.410400 0.485200
vt 4.451800 0.485200
vt 4.451800 0.483900
vt 4.410400 0.483900
vt -2.852500 -0.341100
vt -2.852500 -0.167000
vt -2.856800 -0.167000
vt -2.856800 -0.341100
vt 1.916300 0.542800
vt 1.916300 0.713100
vt 1.912000 0.713100
vt 1.912000 0.542800
vt 1.267500 -0.165700
vt 1.267500 0.008400
vt 1.271700 0.008400
vt 1.271700 -0.165700
vt 2.075300 0.893200
vt 2.075300 1.063400
vt 2.079700 1.063400
vt 2.079700 0.893200
vt 1.226800 -0.167000
vt 1.226800 -0.330700
vt 1.231000 -0.330700
vt 1.231000 -0.167000
vt -3.056700 -0.342400
vt -3.056700 -0.502500
vt -3.061100 -0.502500
vt -3.061100 -0.342400
vt -2.840700 -0.167000
vt -2.840700 -0.333300
vt -2.836400 -0.330700
vt -2.836400 -0.167000
vt 2.422000 0.702900
vt 2.422000 0.542800
vt 2.426400 0.541500
vt 2.426400 0.702900
vt 2.946800 0.289600
vt 2.680100 0.289600
vt 2.680100 0.288300
vt 2.946800 0.288300
vt 2.177000 0.542800
vt 1.916300 0.542800
vt 1.916300 0.541500
vt 2.177000 0.541500
vt -0.788300 -0.165700
vt 1.267500 -0.165700
vt 1.267500 -0.167000
vt -0.788300 -0.167000
vt 2.946800 0.890700
vt 2.946800 0.289600
vt 2.951200 0.289600
vt 2.951200 0.890700
vt -2.840700 -0.333300
vt -0.808600 -0.333300
vt -0.817100 -0.332000
vt -2.832200 -0.332000
vt 2.955600 0.878700
vt 2.955600 0.289600
vt 2.951200 0.289600
vt 2.951200 0.878700
vt 2.955600 0.289600
vt 3.197400 0.289600
vt 3.197400 0.288300
vt 2.955600 0.288300
vt -3.056700 -0.502500
vt -2.820400 -0.502500
vt -2.820400 -0.503800
vt -3.056700 -0.503800
vt 2.434300 0.182600
vt 2.700900 0.182600
vt 2.700900 0.183900
vt 2.434300 0.183900
vt 1.647000 0.371300
vt 1.907600 0.371300
vt 1.907600 0.370000
vt 1.647000 0.370000
vt 1.355300 1.387000
vt 1.355300 1.553400
vt 1.351100 1.553400
vt 1.351100 1.389600
vt 2.384800 -0.519300
vt 2.384800 -0.359200
vt 2.389100 -0.359200
vt 2.389100 -0.520600
vt 0.656400 0.728200
vt 0.656400 0.891900
vt 0.652200 0.891900
vt 0.652200 0.728200
vt 2.185700 0.371300
vt 2.185700 0.531400
vt 2.181300 0.531400
vt 2.181300 0.371300
vt 1.907600 0.371300
vt 1.907600 0.541500
vt 1.912000 0.541500
vt 1.912000 0.371300
vt -0.796800 0.009700
vt -0.796800 0.183900
vt -0.792500 0.183900
vt -0.792500 0.009700
vt 1.377600 0.371300
vt 1.377600 0.541500
vt 1.373200 0.541500
vt 1.373200 0.371300
vt -0.688600 1.379300
vt -0.688600 1.553400
vt -0.692800 1.553400
vt -0.692800 1.379300
vt 2.985300 0.182600
vt 2.985300 -0.406500
vt 2.980900 -0.406500
vt 2.980900 0.182600
vt -0.676700 1.387000
vt 1.355300 1.387000
vt 1.346800 1.388300
vt -0.668200 1.388300
vt 2.700900 0.182600
vt 2.700900 -0.418400
vt 2.705400 -0.418400
vt 2.705400 0.182600
vt 2.434300 -0.418400
vt 2.434300 0.182600
vt 2.429900 0.182600
vt 2.429900 -0.418400
vt 2.148500 -0.519300
vt 2.384800 -0.519300
vt 2.384800 -0.520600
vt 2.148500 -0.520600
vt 2.422000 0.371300
vt 2.185700 0.371300
vt 2.185700 0.370000
vt 2.422000 0.370000
vt 2.739200 0.950500
vt 2.472600 0.950500
vt 2.472600 0.949300
vt 2.739200 0.949300
vt 1.907600 0.542800
vt 1.647000 0.542800
vt 1.647000 0.541500
vt 1.907600 0.541500
vt -0.796800 -0.342400
vt -0.796800 -0.506100
vt -0.792500 -0.506100
vt -0.792500 -0.342400
vt 2.084000 1.185700
vt 2.084000 1.025600
vt 2.079700 1.025600
vt 2.079700 1.185700
vt -0.676700 2.000000
vt -0.676700 1.833700
vt -0.672500 1.836300
vt -0.672500 2.000000
vt 2.320300 1.347100
vt 2.320300 1.187000
vt 2.324700 1.185700
vt 2.324700 1.347100
vt 1.916300 0.541500
vt 1.916300 0.371300
vt 1.912000 0.371300
vt 1.912000 0.541500
vt -0.788300 0.183900
vt -0.788300 0.009700
vt -0.792500 0.009700
vt -0.792500 0.183900
vt 1.367200 1.825900
vt -0.688600 1.825900
vt -0.688600 1.824600
vt 1.367200 1.824600
vt 2.989800 0.950500
vt 2.989800 1.539700
vt 2.994300 1.540900
vt 2.994300 0.949300
vt -0.796800 -0.506100
vt -2.811800 -0.506100
vt -2.811800 -0.507400
vt -0.796800 -0.507400
vt 2.472600 0.950500
vt 2.472600 1.551600
vt 2.468100 1.551600
vt 2.468100 0.950500
vt 1.907600 0.713100
vt 1.907600 0.542800
vt 1.912000 0.542800
vt 1.912000 0.713100
vt 1.367200 2.000000
vt 1.367200 1.825900
vt 1.371400 1.825900
vt 1.371400 2.000000
vt 2.748100 0.950500
vt 2.989800 0.950500
vt 2.989800 0.949300
vt 2.748100 0.949300
vt 2.084000 1.025600
vt 2.320300 1.025600
vt 2.320300 1.024300
vt 2.084000 1.024300
vt 1.638300 0.549300
vt 1.377600 0.549300
vt 1.377600 0.548000
vt 1.638300 0.548000
vt 2.976400 -0.418400
vt 2.709800 -0.418400
vt 2.709800 -0.419700
vt 2.976400 -0.419700
vt 1.235400 -0.519300
vt 1.471700 -0.519300
vt 1.471700 -0.520600
vt 1.235400 -0.520600
vt 2.998700 0.950500
vt 3.240400 0.950500
vt 3.240400 0.949300
vt 2.998700 0.949300
vt 2.075300 1.187000
vt 2.075300 1.357200
vt 2.079700 1.357200
vt 2.079700 1.187000
vt 1.367200 1.554700
vt 1.367200 1.728800
vt 1.371400 1.728800
vt 1.371400 1.554700
vt 1.377600 0.549300
vt 1.377600 0.719600
vt 1.373200 0.719600
vt 1.373200 0.549300
vt -2.852600 -0.165700
vt -2.852600 0.008400
vt -2.856800 0.008400
vt -2.856800 -0.165700
vt -0.808600 -0.157900
vt -0.808600 0.008400
vt -0.812900 0.008400
vt -0.812900 -0.155300
vt 1.471700 -0.519300
vt 1.471700 -0.359200
vt 1.476100 -0.359200
vt 1.476100 -0.520600
vt -0.788300 -0.495700
vt -0.788300 -0.332000
vt -0.792500 -0.332000
vt -0.792500 -0.495700
vt 1.480400 -0.519300
vt 1.480400 -0.359200
vt 1.476100 -0.359200
vt 1.476100 -0.519300
vt -0.796700 -0.165700
vt -2.852600 -0.165700
vt -2.852600 -0.167000
vt -0.796700 -0.167000
vt 1.226800 -0.495700
vt -0.788300 -0.495700
vt -0.788300 -0.497000
vt 1.226800 -0.497000
vt 3.240400 0.950500
vt 3.240400 1.539700
vt 3.244900 1.540900
vt 3.244900 0.949300
vt 2.709800 -0.418400
vt 2.709800 0.182600
vt 2.705400 0.182600
vt 2.705400 -0.418400
vt -0.688600 1.823300
vt 1.430500 1.823300
vt 1.430500 1.824600
vt -0.688600 1.824600
vt -3.057400 1.998800
vt -3.057400 1.379200
vt -3.061900 1.379200
vt -3.061900 1.998800
vt -0.688600 1.730100
vt 1.430500 1.730100
vt 1.430500 1.728800
vt -0.688600 1.728800
vt -0.697300 1.998800
vt -0.697300 1.379200
vt -0.692900 1.379200
vt -0.692900 1.998800
vt 0.496000 1.782400
vt 1.645400 1.782400
vt 1.645400 1.783700
vt 0.496000 1.783700
vt 1.645400 1.797000
vt 0.496000 1.797000
vt 0.496000 1.798200
vt 1.645400 1.798200
vt -0.697300 1.379200
vt -1.872900 1.379200
vt -1.872900 1.378000
vt -0.697300 1.378000
vt 1.645400 1.771400
vt 0.496000 1.771400
vt 0.496000 1.770100
vt 1.645400 1.770100
vt 1.430500 1.730100
vt 1.430500 1.741400
vt 1.434800 1.741400
vt 1.434800 1.730100
vt 0.496000 1.771400
vt 0.496000 1.782400
vt 0.491600 1.782400
vt 0.491600 1.771400
vt -0.688600 1.812000
vt -0.688600 1.823300
vt -0.692900 1.823300
vt -0.692900 1.812000
vt 1.645400 1.785900
vt 1.645400 1.797000
vt 1.649800 1.797000
vt 1.649800 1.785900
f 1/1/1 2/2/2 3/3/3
f 1/1/1 3/3/3 4/4/4
f 5/5/5 6/6/6 7/7/7
f 5/5/5 7/7/7 8/8/8
f 9/9/9 10/10/10 11/11/11
f 9/9/9 11/11/11 12/12/12
f 13/13/13 14/14/14 15/15/15
f 13/13/13 15/15/15 16/16/16
f 17/17/17 18/18/18 19/19/19
f 17/17/17 19/19/19 20/20/20
f 21/21/21 22/22/22 23/23/23
f 21/21/21 23/23/23 24/24/24
f 25/25/25 26/26/26 27/27/27
f 25/25/25 27/27/27 28/28/28
f 29/29/29 30/30/30 31/31/31
f 29/29/29 31/31/31 32/32/32
f 33/33/33 34/34/34 35/35/35
f 33/33/33 35/35/35 36/36/36
f 37/37/37 38/38/38 39/39/39
f 37/37/37 39/39/39 40/40/40
f 41/41/41 42/42/42 43/43/43
f 41/41/41 43/43/43 44/44/44
f 45/45/45 46/46/46 47/47/47
f 45/45/45 47/47/47 48/48/48
f 49/49/49 50/50/50 51/51/51
f 49/49/49 51/51/51 52/52/52
f 53/53/53 54/54/54 55/55/55
f 53/53/53 55/55/55 56/56/56
f 57/57/57 58/58/58 59/59/59
f 57/57/57 59/59/59 60/60/60
f 61/61/61 62/62/62 63/63/63
f 61/61/61 63/63/63 64/64/64
f 65/65/65 66/66/66 67/67/67
f 65/65/65 67/67/67 68/68/68
f 69/69/69 70/70/70 71/71/71
f 69/69/69 71/71/71 72/72/72
f 73/73/73 74/74/74 75/75/75
f 73/73/73 75/75/75 76/76/76
f 77/77/77 78/78/78 79/79/79
f 77/77/77 79/79/79 80/80/80
f 81/81/81 82/82/82 83/83/83
f 81/81/81 83/83/83 84/84/84
f 81/81/81 84/84/84 85/85/85
f 81/81/81 85/85/85 86/86/86
f 81/81/81 86/86/86 87/87/87
f 81/81/81 87/87/87 88/88/88
f 89/89/89 90/90/90 91/91/91
f 89/89/89 91/91/91 92/92/92
f 93/93/93 94/94/94 95/95/95
f 93/93/93 95/95/95 96/96/96
f 97/97/97 98/98/98 99/99/99
f 97/97/97 99/99/99 100/100/100
f 101/101/101 102/102/102 103/103/103
f 101/101/101 103/103/103 104/104/104
f 105/105/105 106/106/106 107/107/107
f 105/105/105 107/107/107 108/108/108
f 109/109/109 110/110/110 111/111/111
f 109/109/109 111/111/111 112/112/112
f 113/113/113 114/114/114 115/115/115
f 113/113/113 115/115/115 116/116/116
f 117/117/117 118/118/118 119/119/119
f 117/117/117 119/119/119 120/120/120
f 121/121/121 122/122/122 123/123/123
f 121/121/121 123/123/123 124/124/124
f 125/125/125 126/126/126 127/127/127
f 125/125/125 127/127/127 128/128/128
f 129/129/129 130/130/130 131/131/131
f 129/129/129 131/131/131 132/132/132
f 133/133/133 134/134/134 135/135/135
f 133/133/133 135/135/135 136/136/136
f 133/133/133 136/136/136 137/137/137
f 133/133/133 137/137/137 138/138/138
f 133/133/133 138/138/138 139/139/139
f 133/133/133 139/139/139 140/140/140
f 141/141/141 142/142/142 143/143/143
f 141/141/141 143/143/143 144/144/144
f 145/145/145 146/146/146 147/147/147
f 145/145/145 147/147/147 148/148/148
f 149/149/149 150/150/150 151/151/151
f 149/149/149 151/151/151 152/152/152
f 153/153/153 154/154/154 155/155/155
f 153/153/153 155/155/155 156/156/156
f 157/157/157 158/158/158 159/159/159
f 157/157/157 159/159/159 160/160/160
f 161/161/161 162/162/162 163/163/163
f 161/161/161 163/163/163 164/164/164
f 165/165/165 166/166/166 167/167/167
f 165/165/165 167/167/167 168/168/168
f 169/169/169 170/170/170 171/171/171
f 169/169/169 171/171/171 172/172/172
f 173/173/173 174/174/174 175/175/175
f 173/173/173 175/175/175 176/176/176
f 177/177/177 178/178/178 179/179/179
f 177/177/177 179/179/179 180/180/180
f 181/181/181 182/182/182 183/183/183
f 181/181/181 183/183/183 184/184/184
f 185/185/185 186/186/186 187/187/187
f 185/185/185 187/187/187 188/188/188
f 189/189/189 190/190/190 191/191/191
f 189/189/189 191/191/191 192/192/192
f 193/193/193 194/194/194 195/195/195
f 193/193/193 195/195/195 196/196/196
f 197/197/197 198/198/198 199/199/199
f 197/197/197 199/199/199 200/200/200
f 197/197/197 200/200/200 201/201/201
f 197/197/197 201/201/201 202/202/202
f 197/197/197 202/202/202 203/203/203
f 197/197/197 203/203/203 204/204/204
f 205/205/205 206/206/206 207/207/207
f 205/205/205 207/207/207 208/208/208
f 209/209/209 210/210/210 211/211/211
f 209/209/209 211/211/211 212/212/212
f 213/213/213 214/214/214 215/215/215
f 213/213/213 215/215/215 216/216/216
f 217/217/217 218/218/218 219/219/219
f 217/217/217 219/219/219 220/220/220
f 221/221/221 222/222/222 223/223/223
f 221/221/221 223/223/223 224/224/224
f 221/221/221 224/224/224 225/225/225
f 221/221/221 225/225/225 226/226/226
f 221/221/221 226/226/226 227/227/227
f 221/221/221 227/227/227 228/228/228
f 229/229/229 230/230/230 231/231/231
f 229/229/229 231/231/231 232/232/232
f 233/233/233 234/234/234 235/235/235
f 233/233/233 235/235/235 236/236/236
f 237/237/237 238/238/238 239/239/239
f 237/237/237 239/239/239 240/240/240
f 241/241/241 242/242/242 243/243/243
f 241/241/241 243/243/243 244/244/244
f 245/245/245 246/246/246 247/247/247
f 245/245/245 247/247/247 248/248/248
f 249/249/249 250/250/250 251/251/251
f 249/249/249 251/251/251 252/252/252
f 253/253/253 254/254/254 255/255/255
f 253/253/253 255/255/255 256/256/256
f 257/257/257 258/258/258 259/259/259
f 257/257/257 259/259/259 260/260/260
f 261/261/261 262/262/262 263/263/263
f 261/261/261 263/263/263 264/264/264
f 265/265/265 266/266/266 267/267/267
f 265/265/265 267/267/267 268/268/268
f 269/269/269 270/270/270 271/271/271
f 269/269/269 271/271/271 272/272/272
f 273/273/273 274/274/274 275/275/275
f 273/273/273 275/275/275 276/276/276
f 277/277/277 278/278/278 279/279/279
f 277/277/277 279/279/279 280/280/280
f 281/281/281 282/282/282 283/283/283
f 284/284/284 285/285/285 286/286/286
f 287/287/287 288/288/288 289/289/289
f 290/290/290 291/291/291 292/292/292
f 293/293/293 294/294/294 295/295/295
f 296/296/296 297/297/297 298/298/298
f 299/299/299 300/300/300 301/301/301
f 302/302/302 303/303/303 304/304/304
f 305/305/305 306/306/306 307/307/307
f 308/308/308 309/309/309 310/310/310
f 311/311/311 312/312/312 313/313/313
f 314/314/314 315/315/315 316/316/316
f 317/317/317 318/318/318 319/319/319
f 320/320/320 321/321/321 322/322/322
f 323/323/323 324/324/324 325/325/325
f 326/326/326 327/327/327 328/328/328
f 329/329/329 330/330/330 331/331/331
f 332/332/332 333/333/333 334/334/334
f 335/335/335 336/336/336 337/337/337
f 338/338/338 339/339/339 340/340/340
f 341/341/341 342/342/342 343/343/343
f 344/344/344 345/345/345 346/346/346
f 347/347/347 348/348/348 349/349/349
f 350/350/350 351/351/351 352/352/352
f 353/353/353 354/354/354 355/355/355
f 356/356/356 357/357/357 358/358/358
f 359/359/359 360/360/360 361/361/361
f 362/362/362 363/363/363 364/364/364
f 365/365/365 366/366/366 367/367/367
f 368/368/368 369/369/369 370/370/370
f 371/371/371 372/372/372 373/373/373
f 374/374/374 375/375/375 376/376/376
f 377/377/377 378/378/378 379/379/379
f 380/380/380 381/381/381 382/382/382
f 383/383/383 384/384/384 385/385/385
f 386/386/386 387/387/387 388/388/388
f 389/389/389 390/390/390 391/391/391
f 392/392/392 393/393/393 394/394/394
f 395/395/395 396/396/396 397/397/397
f 398/398/398 399/399/399 400/400/400
f 401/401/401 402/402/402 403/403/403
f 404/404/404 405/405/405 406/406/406
f 407/407/407 408/408/408 409/409/409
f 410/410/410 411/411/411 412/412/412
f 413/413/413 414/414/414 415/415/415
f 416/416/416 417/417/417 418/418/418
f 419/419/419 420/420/420 421/421/421
f 422/422/422 423/423/423 424/424/424
f 425/425/425 426/426/426 427/427/427
f 428/428/428 429/429/429 430/430/430
f 431/431/431 432/432/432 433/433/433
f 434/434/434 435/435/435 436/436/436
f 437/437/437 438/438/438 439/439/439
f 440/440/440 441/441/441 442/442/442
f 443/443/443 444/444/444 445/445/445
f 446/446/446 447/447/447 448/448/448
f 449/449/449 450/450/450 451/451/451
f 452/452/452 453/453/453 454/454/454
f 455/455/455 456/456/456 457/457/457
f 458/458/458 459/459/459 460/460/460
f 461/461/461 462/462/462 463/463/463
f 464/464/464 465/465/465 466/466/466
f 467/467/467 468/468/468 469/469/469
f 470/470/470 471/471/471 472/472/472
f 473/473/473 474/474/474 475/475/475
f 476/476/476 477/477/477 478/478/478
f 479/479/479 480/480/480 481/481/481
f 482/482/482 483/483/483 484/484/484
f 485/485/485 486/486/486 487/487/487
f 488/488/488 489/489/489 490/490/490
f 491/491/491 492/492/492 493/493/493
f 494/494/494 495/495/495 496/496/496
f 497/497/497 498/498/498 499/499/499
f 497/497/497 499/499/499 500/500/500
f 501/501/501 502/502/502 503/503/503
f 501/501/501 503/503/503 504/504/504
f 505/505/505 506/506/506 507/507/507
f 505/505/505 507/507/507 508/508/508
f 509/509/509 510/510/510 511/511/511
f 509/509/509 511/511/511 512/512/512
f 513/513/513 514/514/514 515/515/515
f 513/513/513 515/515/515 516/516/516
f 517/517/517 518/518/518 519/519/519
f 517/517/517 519/519/519 520/520/520
f 521/521/521 522/522/522 523/523/523
f 521/521/521 523/523/523 524/524/524
f 525/525/525 526/526/526 527/527/527
f 525/525/525 527/527/527 528/528/528
f 529/529/529 530/530/530 531/531/531
f 529/529/529 531/531/531 532/532/532
f 533/533/533 534/534/534 535/535/535
f 533/533/533 535/535/535 536/536/536
f 537/537/537 538/538/538 539/539/539
f 537/537/537 539/539/539 540/540/540
f 541/541/541 542/542/542 543/543/543
f 541/541/541 543/543/543 544/544/544
f 545/545/545 546/546/546 547/547/547
f 545/545/545 547/547/547 548/548/548
f 549/549/549 550/550/550 551/551/551
f 549/549/549 551/551/551 552/552/552
f 553/553/553 554/554/554 555/555/555
f 553/553/553 555/555/555 556/556/556
f 557/557/557 558/558/558 559/559/559
f 557/557/557 559/559/559 560/560/560
f 561/561/561 562/562/562 563/563/563
f 561/561/561 563/563/563 564/564/564
f 565/565/565 566/566/566 567/567/567
f 565/565/565 567/567/567 568/568/568
f 569/569/569 570/570/570 571/571/571
f 569/569/569 571/571/571 572/572/572
f 573/573/573 574/574/574 575/575/575
f 573/573/573 575/575/575 576/576/576
f 577/577/577 578/578/578 579/579/579
f 577/577/577 579/579/579 580/580/580
f 581/581/581 582/582/582 583/583/583
f 581/581/581 583/583/583 584/584/584
f 585/585/585 586/586/586 587/587/587
f 585/585/585 587/587/587 588/588/588
f 589/589/589 590/590/590 591/591/591
f 589/589/589 591/591/591 592/592/592
f 593/593/593 594/594/594 595/595/595
f 593/593/593 595/595/595 596/596/596
f 597/597/597 598/598/598 599/599/599
f 597/597/597 599/599/599 600/600/600
f 601/601/601 602/602/602 603/603/603
f 601/601/601 603/603/603 604/604/604
f 605/605/605 606/606/606 607/607/607
f 605/605/605 607/607/607 608/608/608
f 609/609/609 610/610/610 611/611/611
f 609/609/609 611/611/611 612/612/612
f 613/613/613 614/614/614 615/615/615
f 613/613/613 615/615/615 616/616/616
f 617/617/617 618/618/618 619/619/619
f 617/617/617 619/619/619 620/620/620
f 621/621/621 622/622/622 623/623/623
f 621/621/621 623/623/623 624/624/624
f 625/625/625 626/626/626 627/627/627
f 625/625/625 627/627/627 628/628/628
f 629/629/629 630/630/630 631/631/631
f 629/629/629 631/631/631 632/632/632
f 633/633/633 634/634/634 635/635/635
f 633/633/633 635/635/635 636/636/636
f 637/637/637 638/638/638 639/639/639
f 637/637/637 639/639/639 640/640/640
f 641/641/641 642/642/642 643/643/643
f 641/641/641 643/643/643 644/644/644
f 645/645/645 646/646/646 647/647/647
f 645/645/645 647/647/647 648/648/648
f 649/649/649 650/650/650 651/651/651
f 649/649/649 651/651/651 652/652/652
f 653/653/653 654/654/654 655/655/655
f 653/653/653 655/655/655 656/656/656
f 657/657/657 658/658/658 659/659/659
f 657/657/657 659/659/659 660/660/660
f 661/661/661 662/662/662 663/663/663
f 661/661/661 663/663/663 664/664/664
f 665/665/665 666/666/666 667/667/667
f 665/665/665 667/667/667 668/668/668
f 669/669/669 670/670/670 671/671/671
f 669/669/669 671/671/671 672/672/672
f 673/673/673 674/674/674 675/675/675
f 673/673/673 675/675/675 676/676/676
f 677/677/677 678/678/678 679/679/679
f 677/677/677 679/679/679 680/680/680
f 681/681/681 682/682/682 683/683/683
f 681/681/681 683/683/683 684/684/684
f 685/685/685 686/686/686 687/687/687
f 685/685/685 687/687/687 688/688/688
f 689/689/689 690/690/690 691/691/691
f 689/689/689 691/691/691 692/692/692
f 693/693/693 694/694/694 695/695/695
f 693/693/693 695/695/695 696/696/696
f 697/697/697 698/698/698 699/699/699
f 697/697/697 699/699/699 700/700/700
f 701/701/701 702/702/702 703/703/703
f 701/701/701 703/703/703 704/704/704
f 705/705/705 706/706/706 707/707/707
f 705/705/705 707/707/707 708/708/708
f 709/709/709 710/710/710 711/711/711
f 709/709/709 711/711/711 712/712/712
f 713/713/713 714/714/714 715/715/715
f 713/713/713 715/715/715 716/716/716
f 717/717/717 718/718/718 719/719/719
f 717/717/717 719/719/719 720/720/720
f 721/721/721 722/722/722 723/723/723
f 721/721/721 723/723/723 724/724/724
f 725/725/725 726/726/726 727/727/727
f 725/725/725 727/727/727 728/728/728
f 729/729/729 730/730/730 731/731/731
f 729/729/729 731/731/731 732/732/732
f 733/733/733 734/734/734 735/735/735
f 733/733/733 735/735/735 736/736/736
f 737/737/737 738/738/738 739/739/739
f 737/737/737 739/739/739 740/740/740
f 741/741/741 742/742/742 743/743/743
f 741/741/741 743/743/743 744/744/744
f 745/745/745 746/746/746 747/747/747
f 745/745/745 747/747/747 748/748/748
f 749/749/749 750/750/750 751/751/751
f 749/749/749 751/751/751 752/752/752
f 753/753/753 754/754/754 755/755/755
f 753/753/753 755/755/755 756/756/756
f 757/757/757 758/758/758 759/759/759
f 757/757/757 759/759/759 760/760/760
f 761/761/761 762/762/762 763/763/763
f 761/761/761 763/763/763 764/764/764
f 765/765/765 766/766/766 767/767/767
f 765/765/765 767/767/767 768/768/768
f 769/769/769 770/770/770 771/771/771
f 769/769/769 771/771/771 772/772/772
f 773/773/773 774/774/774 775/775/775
f 773/773/773 775/775/775 776/776/776
f 777/777/777 778/778/778 779/779/779
f 777/777/777 779/779/779 780/780/780
f 781/781/781 782/782/782 783/783/783
f 781/781/781 783/783/783 784/784/784
f 785/785/785 786/786/786 787/787/787
f 785/785/785 787/787/787 788/788/788
f 789/789/789 790/790/790 791/791/791
f 789/789/789 791/791/791 792/792/792
f 793/793/793 794/794/794 795/795/795
f 793/793/793 795/795/795 796/796/796
f 797/797/797 798/798/798 799/799/799
f 797/797/797 799/799/799 800/800/800
f 801/801/801 802/802/802 803/803/803
f 801/801/801 803/803/803 804/804/804
f 805/805/805 806/806/806 807/807/807
f 805/805/805 807/807/807 808/808/808
f 809/809/809 810/810/810 811/811/811
f 809/809/809 811/811/811 812/812/812
f 813/813/813 814/814/814 815/815/815
f 813/813/813 815/815/815 816/816/816
f 817/817/817 818/818/818 819/819/819
f 817/817/817 819/819/819 820/820/820
f 821/821/821 822/822/822 823/823/823
f 821/821/821 823/823/823 824/824/824
f 825/825/825 826/826/826 827/827/827
f 825/825/825 827/827/827 828/828/828
f 829/829/829 830/830/830 831/831/831
f 829/829/829 831/831/831 832/832/832
f 833/833/833 834/834/834 835/835/835
f 833/833/833 835/835/835 836/836/836
f 837/837/837 838/838/838 839/839/839
f 837/837/837 839/839/839 840/840/840
f 841/841/841 842/842/842 843/843/843
f 841/841/841 843/843/843 844/844/844
f 845/845/845 846/846/846 847/847/847
f 845/845/845 847/847/847 848/848/848
f 849/849/849 850/850/850 851/851/851
f 849/849/849 851/851/851 852/852/852
f 853/853/853 854/854/854 855/855/855
f 853/853/853 855/855/855 856/856/856
f 857/857/857 858/858/858 859/859/859
f 857/857/857 859/859/859 860/860/860
f 861/861/861 862/862/862 863/863/863
f 861/861/861 863/863/863 864/864/864
f 865/865/865 866/866/866 867/867/867
f 865/865/865 867/867/867 868/868/868
f 869/869/869 870/870/870 871/871/871
f 869/869/869 871/871/871 872/872/872
f 873/873/873 874/874/874 875/875/875
f 873/873/873 875/875/875 876/876/876
f 877/877/877 878/878/878 879/879/879
f 877/877/877 879/879/879 880/880/880
f 881/881/881 882/882/882 883/883/883
f 881/881/881 883/883/883 884/884/884
f 885/885/885 886/886/886 887/887/887
f 885/885/885 887/887/887 888/888/888
f 889/889/889 890/890/890 891/891/891
f 889/889/889 891/891/891 892/892/892
f 893/893/893 894/894/894 895/895/895
f 893/893/893 895/895/895 896/896/896
f 897/897/897 898/898/898 899/899/899
f 897/897/897 899/899/899 900/900/900
f 901/901/901 902/902/902 903/903/903
f 901/901/901 903/903/903 904/904/904
f 905/905/905 906/906/906 907/907/907
f 905/905/905 907/907/907 908/908/908
f 909/909/909 910/910/910 911/911/911
f 909/909/909 911/911/911 912/912/912
f 913/913/913 914/914/914 915/915/915
f 913/913/913 915/915/915 916/916/916
f 917/917/917 918/918/918 919/919/919
f 917/917/917 919/919/919 920/920/920
f 921/921/921 922/922/922 923/923/923
f 921/921/921 923/923/923 924/924/924
f 925/925/925 926/926/926 927/927/927
f 925/925/925 927/927/927 928/928/928
f 929/929/929 930/930/930 931/931/931
f 929/929/929 931/931/931 932/932/932
f 933/933/933 934/934/934 935/935/935
f 933/933/933 935/935/935 936/936/936
f 937/937/937 938/938/938 939/939/939
f 937/937/937 939/939/939 940/940/940
f 941/941/941 942/942/942 943/943/943
f 941/941/941 943/943/943 944/944/944
f 945/945/945 946/946/946 947/947/947
f 945/945/945 947/947/947 948/948/948
f 949/949/949 950/950/950 951/951/951
f 949/949/949 951/951/951 952/952/952
f 953/953/953 954/954/954 955/955/955
f 953/953/953 955/955/955 956/956/956
f 957/957/957 958/958/958 959/959/959
f 957/957/957 959/959/959 960/960/960
f 961/961/961 962/962/962 963/963/963
f 961/961/961 963/963/963 964/964/964
f 965/965/965 966/966/966 967/967/967
f 965/965/965 967/967/967 968/968/968
f 969/969/969 970/970/970 971/971/971
f 969/969/969 971/971/971 972/972/972
f 973/973/973 974/974/974 975/975/975
f 973/973/973 975/975/975 976/976/976
f 977/977/977 978/978/978 979/979/979
f 977/977/977 979/979/979 980/980/980
f 981/981/981 982/982/982 983/983/983
f 981/981/981 983/983/983 984/984/984
f 985/985/985 986/986/986 987/987/987
f 985/985/985 987/987/987 988/988/988
f 989/989/989 990/990/990 991/991/991
f 989/989/989 991/991/991 992/992/992
