# Blender v2.79 (sub 0) OBJ File: ''
# www.blender.org
mtllib blind4.mtl
o Plane
v 3.527159 2.469905 0.619630
v 3.527159 0.449906 0.619630
v 2.427159 2.469905 0.619630
v 2.427159 0.449906 0.619630
vn 0.0000 0.0000 -1.0000
usemtl None
s off
f 1//1 2//1 4//1 3//1
